components/dmux4way16/tb_DMux4Way16.vcd
$date
	Tue Sep 12 15:50:18 2023
$end
$version
	Icarus Verilog
$end
$timescale
	1s
$end
$scope module tb_DMux4Way16 $end
$var wire 16 ! d [15:0] $end
$var wire 16 " c [15:0] $end
$var wire 16 # b [15:0] $end
$var wire 16 $ a [15:0] $end
$var reg 16 % in [15:0] $end
$var reg 2 & sel [1:0] $end
$scope module mymodule $end
$var wire 16 ' in [15:0] $end
$var wire 2 ( sel [1:0] $end
$var wire 16 ) d [15:0] $end
$var wire 16 * c [15:0] $end
$var wire 16 + b [15:0] $end
$var wire 16 , a [15:0] $end
$var wire 16 - DMux0CD [15:0] $end
$var wire 16 . DMux0AB [15:0] $end
$scope module DMux16_module0 $end
$var wire 16 / in [15:0] $end
$var wire 1 0 not_sel $end
$var wire 1 1 sel $end
$var wire 16 2 b [15:0] $end
$var wire 16 3 a [15:0] $end
$upscope $end
$scope module DMux16_moduleOutAB $end
$var wire 16 4 in [15:0] $end
$var wire 1 5 not_sel $end
$var wire 1 6 sel $end
$var wire 16 7 b [15:0] $end
$var wire 16 8 a [15:0] $end
$upscope $end
$scope module DMux16_moduleOutCD $end
$var wire 16 9 in [15:0] $end
$var wire 1 : not_sel $end
$var wire 1 ; sel $end
$var wire 16 < b [15:0] $end
$var wire 16 = a [15:0] $end
$upscope $end
$upscope $end
$upscope $end
$enddefinitions $end
$comment Show the parameter values. $end
$dumpall
$end
#0
$dumpvars
b0 =
b0 <
0;
1:
b0 9
b0 8
b0 7
06
15
b0 4
b0 3
b0 2
01
10
b0 /
b0 .
b0 -
b0 ,
b0 +
b0 *
b0 )
b0 (
b0 '
b0 &
b0 %
b0 $
b0 #
b0 "
b0 !
$end
#1
b1100111010 #
b1100111010 +
b1100111010 7
05
0:
b1100111010 .
b1100111010 3
b1100111010 4
16
1;
b1 &
b1 (
b1100111010 %
b1100111010 '
b1100111010 /
#2
b0 $
b0 ,
b0 8
b10000100110 "
b10000100110 *
b10000100110 =
00
15
b0 #
b0 +
b0 7
1:
b0 .
b0 3
b0 4
b10000100110 -
b10000100110 2
b10000100110 9
11
06
0;
b10 &
b10 (
b10000100110 %
b10000100110 '
b10000100110 /
#3
b1110110010111 #
b1110110010111 +
b1110110010111 7
b1110110010111 .
b1110110010111 3
b1110110010111 4
b0 "
b0 *
b0 =
10
05
0:
b0 !
b0 )
b0 <
b0 -
b0 2
b0 9
01
16
1;
b1 &
b1 (
b1110110010111 %
b1110110010111 '
b1110110010111 /
#4
b10001101011001 #
b10001101011001 +
b10001101011001 7
b10001101011001 .
b10001101011001 3
b10001101011001 4
b10001101011001 %
b10001101011001 '
b10001101011001 /
#5
b10011111100000 $
b10011111100000 ,
b10011111100000 8
15
b0 #
b0 +
b0 7
1:
b10011111100000 .
b10011111100000 3
b10011111100000 4
06
0;
b0 &
b0 (
b10011111100000 %
b10011111100000 '
b10011111100000 /
#6
b0 $
b0 ,
b0 8
b10111000000001 "
b10111000000001 *
b10111000000001 =
00
b0 .
b0 3
b0 4
b10111000000001 -
b10111000000001 2
b10111000000001 9
11
b10 &
b10 (
b10111000000001 %
b10111000000001 '
b10111000000001 /
#7
b11100101100101 "
b11100101100101 *
b11100101100101 =
b11100101100101 -
b11100101100101 2
b11100101100101 9
b11100101100101 %
b11100101100101 '
b11100101100101 /
#8
b0 "
b0 *
b0 =
05
0:
b11110011001111 !
b11110011001111 )
b11110011001111 <
b11110011001111 -
b11110011001111 2
b11110011001111 9
16
1;
b11 &
b11 (
b11110011001111 %
b11110011001111 '
b11110011001111 /
#9
b100100110100000 $
b100100110100000 ,
b100100110100000 8
b100100110100000 .
b100100110100000 3
b100100110100000 4
b0 "
b0 *
b0 =
10
15
1:
b0 !
b0 )
b0 <
b0 -
b0 2
b0 9
01
06
0;
b0 &
b0 (
b100100110100000 %
b100100110100000 '
b100100110100000 /
#10
b0 $
b0 ,
b0 8
05
b100111010101010 #
b100111010101010 +
b100111010101010 7
0:
b100111010101010 .
b100111010101010 3
b100111010101010 4
16
1;
b1 &
b1 (
b100111010101010 %
b100111010101010 '
b100111010101010 /
#11
b101100000100110 $
b101100000100110 ,
b101100000100110 8
15
b0 #
b0 +
b0 7
1:
b101100000100110 .
b101100000100110 3
b101100000100110 4
06
0;
b0 &
b0 (
b101100000100110 %
b101100000100110 '
b101100000100110 /
#12
b101111110101101 !
b101111110101101 )
b101111110101101 <
b0 $
b0 ,
b0 8
00
05
b0 #
b0 +
b0 7
0:
b0 .
b0 3
b0 4
b101111110101101 -
b101111110101101 2
b101111110101101 9
11
16
1;
b11 &
b11 (
b101111110101101 %
b101111110101101 '
b101111110101101 /
#13
b110101110110101 #
b110101110110101 +
b110101110110101 7
b0 !
b0 )
b0 <
b110101110110101 .
b110101110110101 3
b110101110110101 4
10
b0 -
b0 2
b0 9
01
b1 &
b1 (
b110101110110101 %
b110101110110101 '
b110101110110101 /
#14
b0 $
b0 ,
b0 8
b110111010011011 "
b110111010011011 *
b110111010011011 =
00
15
b0 #
b0 +
b0 7
1:
b0 .
b0 3
b0 4
b110111010011011 -
b110111010011011 2
b110111010011011 9
11
06
0;
b10 &
b10 (
b110111010011011 %
b110111010011011 '
b110111010011011 /
#15
b0 "
b0 *
b0 =
05
0:
b111111100110111 !
b111111100110111 )
b111111100110111 <
b111111100110111 -
b111111100110111 2
b111111100110111 9
16
1;
b11 &
b11 (
b111111100110111 %
b111111100110111 '
b111111100110111 /
#16
b1000000110001110 !
b1000000110001110 )
b1000000110001110 <
b1000000110001110 -
b1000000110001110 2
b1000000110001110 9
b1000000110001110 %
b1000000110001110 '
b1000000110001110 /
#17
b1000001110110011 "
b1000001110110011 *
b1000001110110011 =
15
1:
b0 !
b0 )
b0 <
b1000001110110011 -
b1000001110110011 2
b1000001110110011 9
06
0;
b10 &
b10 (
b1000001110110011 %
b1000001110110011 '
b1000001110110011 /
#18
b0 "
b0 *
b0 =
05
0:
b1001010100111000 !
b1001010100111000 )
b1001010100111000 <
b1001010100111000 -
b1001010100111000 2
b1001010100111000 9
16
1;
b11 &
b11 (
b1001010100111000 %
b1001010100111000 '
b1001010100111000 /
#19
b1010011010110100 $
b1010011010110100 ,
b1010011010110100 8
b1010011010110100 .
b1010011010110100 3
b1010011010110100 4
b0 "
b0 *
b0 =
10
15
1:
b0 !
b0 )
b0 <
b0 -
b0 2
b0 9
01
06
0;
b0 &
b0 (
b1010011010110100 %
b1010011010110100 '
b1010011010110100 /
#20
b1010111111001101 $
b1010111111001101 ,
b1010111111001101 8
b1010111111001101 .
b1010111111001101 3
b1010111111001101 4
b1010111111001101 %
b1010111111001101 '
b1010111111001101 /
#21
b1011101000110011 !
b1011101000110011 )
b1011101000110011 <
b0 $
b0 ,
b0 8
00
05
b0 #
b0 +
b0 7
0:
b0 .
b0 3
b0 4
b1011101000110011 -
b1011101000110011 2
b1011101000110011 9
11
16
1;
b11 &
b11 (
b1011101000110011 %
b1011101000110011 '
b1011101000110011 /
#22
b1100000000101001 #
b1100000000101001 +
b1100000000101001 7
b0 !
b0 )
b0 <
b1100000000101001 .
b1100000000101001 3
b1100000000101001 4
10
b0 -
b0 2
b0 9
01
b1 &
b1 (
b1100000000101001 %
b1100000000101001 '
b1100000000101001 /
#23
b1101001111110111 $
b1101001111110111 ,
b1101001111110111 8
15
b0 #
b0 +
b0 7
1:
b1101001111110111 .
b1101001111110111 3
b1101001111110111 4
06
0;
b0 &
b0 (
b1101001111110111 %
b1101001111110111 '
b1101001111110111 /
#24
b0 $
b0 ,
b0 8
05
b1101010000110001 #
b1101010000110001 +
b1101010000110001 7
0:
b1101010000110001 .
b1101010000110001 3
b1101010000110001 4
16
1;
b1 &
b1 (
b1101010000110001 %
b1101010000110001 '
b1101010000110001 /
#25
b0 #
b0 +
b0 7
b1110000010001010 !
b1110000010001010 )
b1110000010001010 <
00
b0 .
b0 3
b0 4
b1110000010001010 -
b1110000010001010 2
b1110000010001010 9
11
b11 &
b11 (
b1110000010001010 %
b1110000010001010 '
b1110000010001010 /
#26
b1110001110010101 #
b1110001110010101 +
b1110001110010101 7
b0 !
b0 )
b0 <
b1110001110010101 .
b1110001110010101 3
b1110001110010101 4
10
b0 -
b0 2
b0 9
01
b1 &
b1 (
b1110001110010101 %
b1110001110010101 '
b1110001110010101 /
#27
b0 $
b0 ,
b0 8
b1111011111000000 "
b1111011111000000 *
b1111011111000000 =
00
15
b0 #
b0 +
b0 7
1:
b0 .
b0 3
b0 4
b1111011111000000 -
b1111011111000000 2
b1111011111000000 9
11
06
0;
b10 &
b10 (
b1111011111000000 %
b1111011111000000 '
b1111011111000000 /
#28
b0 "
b0 *
b0 =
05
0:
b1111110010110001 !
b1111110010110001 )
b1111110010110001 <
b1111110010110001 -
b1111110010110001 2
b1111110010110001 9
16
1;
b11 &
b11 (
b1111110010110001 %
b1111110010110001 '
b1111110010110001 /
#29
b1111111111111111 !
b1111111111111111 )
b1111111111111111 <
b1111111111111111 -
b1111111111111111 2
b1111111111111111 9
b1111111111111111 %
b1111111111111111 '
b1111111111111111 /
