components/mux4way16/tb_Mux4Way16.vcd
$date
	Tue Sep 12 15:29:27 2023
$end
$version
	Icarus Verilog
$end
$timescale
	1s
$end
$scope module tb_Mux4Way16 $end
$var wire 16 ! out [15:0] $end
$var reg 16 " a [15:0] $end
$var reg 16 # b [15:0] $end
$var reg 16 $ c [15:0] $end
$var reg 16 % d [15:0] $end
$var reg 2 & sel [1:0] $end
$scope module mymodule $end
$var wire 16 ' in_A [15:0] $end
$var wire 16 ( in_B [15:0] $end
$var wire 16 ) in_C [15:0] $end
$var wire 16 * in_D [15:0] $end
$var wire 2 + sel [1:0] $end
$var wire 16 , out [15:0] $end
$var wire 16 - mux16_CD [15:0] $end
$var wire 16 . mux16_AB [15:0] $end
$scope module mux_moduleAB $end
$var wire 16 / a [15:0] $end
$var wire 16 0 b [15:0] $end
$var wire 1 1 not_sel $end
$var wire 1 2 sel $end
$var wire 16 3 out [15:0] $end
$var wire 16 4 b1 [15:0] $end
$var wire 16 5 a1 [15:0] $end
$scope begin genblk1[0] $end
$var parameter 2 6 i $end
$upscope $end
$scope begin genblk1[1] $end
$var parameter 2 7 i $end
$upscope $end
$scope begin genblk1[2] $end
$var parameter 3 8 i $end
$upscope $end
$scope begin genblk1[3] $end
$var parameter 3 9 i $end
$upscope $end
$scope begin genblk1[4] $end
$var parameter 4 : i $end
$upscope $end
$scope begin genblk1[5] $end
$var parameter 4 ; i $end
$upscope $end
$scope begin genblk1[6] $end
$var parameter 4 < i $end
$upscope $end
$scope begin genblk1[7] $end
$var parameter 4 = i $end
$upscope $end
$scope begin genblk1[8] $end
$var parameter 5 > i $end
$upscope $end
$scope begin genblk1[9] $end
$var parameter 5 ? i $end
$upscope $end
$scope begin genblk1[10] $end
$var parameter 5 @ i $end
$upscope $end
$scope begin genblk1[11] $end
$var parameter 5 A i $end
$upscope $end
$scope begin genblk1[12] $end
$var parameter 5 B i $end
$upscope $end
$scope begin genblk1[13] $end
$var parameter 5 C i $end
$upscope $end
$scope begin genblk1[14] $end
$var parameter 5 D i $end
$upscope $end
$scope begin genblk1[15] $end
$var parameter 5 E i $end
$upscope $end
$upscope $end
$scope module mux_moduleCD $end
$var wire 16 F a [15:0] $end
$var wire 16 G b [15:0] $end
$var wire 1 H not_sel $end
$var wire 1 I sel $end
$var wire 16 J out [15:0] $end
$var wire 16 K b1 [15:0] $end
$var wire 16 L a1 [15:0] $end
$scope begin genblk1[0] $end
$var parameter 2 M i $end
$upscope $end
$scope begin genblk1[1] $end
$var parameter 2 N i $end
$upscope $end
$scope begin genblk1[2] $end
$var parameter 3 O i $end
$upscope $end
$scope begin genblk1[3] $end
$var parameter 3 P i $end
$upscope $end
$scope begin genblk1[4] $end
$var parameter 4 Q i $end
$upscope $end
$scope begin genblk1[5] $end
$var parameter 4 R i $end
$upscope $end
$scope begin genblk1[6] $end
$var parameter 4 S i $end
$upscope $end
$scope begin genblk1[7] $end
$var parameter 4 T i $end
$upscope $end
$scope begin genblk1[8] $end
$var parameter 5 U i $end
$upscope $end
$scope begin genblk1[9] $end
$var parameter 5 V i $end
$upscope $end
$scope begin genblk1[10] $end
$var parameter 5 W i $end
$upscope $end
$scope begin genblk1[11] $end
$var parameter 5 X i $end
$upscope $end
$scope begin genblk1[12] $end
$var parameter 5 Y i $end
$upscope $end
$scope begin genblk1[13] $end
$var parameter 5 Z i $end
$upscope $end
$scope begin genblk1[14] $end
$var parameter 5 [ i $end
$upscope $end
$scope begin genblk1[15] $end
$var parameter 5 \ i $end
$upscope $end
$upscope $end
$scope module mux_moduleOut $end
$var wire 16 ] a [15:0] $end
$var wire 16 ^ b [15:0] $end
$var wire 1 _ not_sel $end
$var wire 1 ` sel $end
$var wire 16 a out [15:0] $end
$var wire 16 b b1 [15:0] $end
$var wire 16 c a1 [15:0] $end
$scope begin genblk1[0] $end
$var parameter 2 d i $end
$upscope $end
$scope begin genblk1[1] $end
$var parameter 2 e i $end
$upscope $end
$scope begin genblk1[2] $end
$var parameter 3 f i $end
$upscope $end
$scope begin genblk1[3] $end
$var parameter 3 g i $end
$upscope $end
$scope begin genblk1[4] $end
$var parameter 4 h i $end
$upscope $end
$scope begin genblk1[5] $end
$var parameter 4 i i $end
$upscope $end
$scope begin genblk1[6] $end
$var parameter 4 j i $end
$upscope $end
$scope begin genblk1[7] $end
$var parameter 4 k i $end
$upscope $end
$scope begin genblk1[8] $end
$var parameter 5 l i $end
$upscope $end
$scope begin genblk1[9] $end
$var parameter 5 m i $end
$upscope $end
$scope begin genblk1[10] $end
$var parameter 5 n i $end
$upscope $end
$scope begin genblk1[11] $end
$var parameter 5 o i $end
$upscope $end
$scope begin genblk1[12] $end
$var parameter 5 p i $end
$upscope $end
$scope begin genblk1[13] $end
$var parameter 5 q i $end
$upscope $end
$scope begin genblk1[14] $end
$var parameter 5 r i $end
$upscope $end
$scope begin genblk1[15] $end
$var parameter 5 s i $end
$upscope $end
$upscope $end
$upscope $end
$upscope $end
$enddefinitions $end
$comment Show the parameter values. $end
$dumpall
b1111 s
b1110 r
b1101 q
b1100 p
b1011 o
b1010 n
b1001 m
b1000 l
b111 k
b110 j
b101 i
b100 h
b11 g
b10 f
b1 e
b0 d
b1111 \
b1110 [
b1101 Z
b1100 Y
b1011 X
b1010 W
b1001 V
b1000 U
b111 T
b110 S
b101 R
b100 Q
b11 P
b10 O
b1 N
b0 M
b1111 E
b1110 D
b1101 C
b1100 B
b1011 A
b1010 @
b1001 ?
b1000 >
b111 =
b110 <
b101 ;
b100 :
b11 9
b10 8
b1 7
b0 6
$end
#0
$dumpvars
b0 c
b0 b
b0 a
0`
1_
b0 ^
b0 ]
b0 L
b0 K
b0 J
0I
1H
b0 G
b0 F
b0 5
b0 4
b0 3
02
11
b0 0
b0 /
b0 .
b0 -
b0 ,
b0 +
b0 *
b0 )
b0 (
b0 '
b0 &
b0 %
b0 $
b0 #
b0 "
b0 !
$end
#1
b110001001111011 !
b110001001111011 ,
b110001001111011 a
b110001001111011 c
b1001110010010011 -
b1001110010010011 J
b1001110010010011 ^
b110001001111011 .
b110001001111011 3
b110001001111011 ]
01
0H
b1001110010010011 K
b0 L
b110001001111011 4
b0 5
12
1I
b1 &
b1 +
b1001110010010011 %
b1001110010010011 *
b1001110010010011 G
b110000101001011 $
b110000101001011 )
b110000101001011 F
b110001001111011 #
b110001001111011 (
b110001001111011 0
b1110000111011000 "
b1110000111011000 '
b1110000111011000 /
#2
b101111000001000 !
b101111000001000 ,
b101111000001000 a
b101111000001000 c
b11011010100011 -
b11011010100011 J
b11011010100011 ^
b101111000001000 .
b101111000001000 3
b101111000001000 ]
b11011010100011 K
b101111000001000 4
b11011010100011 %
b11011010100011 *
b11011010100011 G
b1100010110110111 $
b1100010110110111 )
b1100010110110111 F
b101111000001000 #
b101111000001000 (
b101111000001000 0
b1110100010010010 "
b1110100010010010 '
b1110100010010010 /
#3
b1110100101111000 !
b1110100101111000 ,
b1110100101111000 a
b1110100101111000 c
b11100010010 -
b11100010010 J
b11100010010 ^
b1110100101111000 .
b1110100101111000 3
b1110100101111000 ]
b1110100101111000 5
b11100010010 L
11
1H
b0 K
b0 4
02
0I
b0 &
b0 +
b1101100011111101 %
b1101100011111101 *
b1101100011111101 G
b11100010010 $
b11100010010 )
b11100010010 F
b1100011100111001 #
b1100011100111001 (
b1100011100111001 0
b1110100101111000 "
b1110100101111000 '
b1110100101111000 /
#4
b110110001101000 !
b110110001101000 ,
b110110001101000 a
b110110001101000 c
b1101001111010100 -
b1101001111010100 J
b1101001111010100 ^
b110110001101000 .
b110110001101000 3
b110110001101000 ]
01
0H
b1101001111010100 K
b0 L
b110110001101000 4
b0 5
12
1I
b1 &
b1 +
b1101001111010100 %
b1101001111010100 *
b1101001111010100 G
b1000011011100000 $
b1000011011100000 )
b1000011011100000 F
b110110001101000 #
b110110001101000 (
b110110001101000 0
b1110101011000101 "
b1110101011000101 '
b1110101011000101 /
#5
b1100111000100001 !
b1100111000100001 ,
b1100111000100001 a
b1100111000100001 -
b1100111000100001 J
b1100111000100001 ^
b1110110001100011 .
b1110110001100011 3
b1110110001100011 ]
b1110110001100011 5
b1100111000100001 L
b0 c
11
1H
0_
b1100111000100001 b
b0 K
b0 4
02
0I
1`
b10 &
b10 +
b1110011001001000 %
b1110011001001000 *
b1110011001001000 G
b1100111000100001 $
b1100111000100001 )
b1100111000100001 F
b1010111111000111 #
b1010111111000111 (
b1010111111000111 0
b1110110001100011 "
b1110110001100011 '
b1110110001100011 /
#6
b1111000101111100 !
b1111000101111100 ,
b1111000101111100 a
b110001110000001 -
b110001110000001 J
b110001110000001 ^
b1111000101111100 .
b1111000101111100 3
b1111000101111100 ]
b1111000101111100 c
1_
b0 b
b110001110000001 L
b1111000101111100 5
0`
b0 &
b0 +
b1001101001010101 %
b1001101001010101 *
b1001101001010101 G
b110001110000001 $
b110001110000001 )
b110001110000001 F
b1000011101101010 #
b1000011101101010 (
b1000011101101010 0
b1111000101111100 "
b1111000101111100 '
b1111000101111100 /
#7
b1011101110110101 !
b1011101110110101 ,
b1011101110110101 a
b1011101110110101 -
b1011101110110101 J
b1011101110110101 ^
b1111001010011110 .
b1111001010011110 3
b1111001010011110 ]
b0 c
0_
b1011101110110101 b
b1011101110110101 L
b1111001010011110 5
1`
b10 &
b10 +
b110101111011110 %
b110101111011110 *
b110101111011110 G
b1011101110110101 $
b1011101110110101 )
b1011101110110101 F
b1100000100011101 #
b1100000100011101 (
b1100000100011101 0
b1111001010011110 "
b1111001010011110 '
b1111001010011110 /
#8
b1001011110011110 !
b1001011110011110 ,
b1001011110011110 a
b1001011110011110 b
b1001011110011110 -
b1001011110011110 J
b1001011110011110 ^
b1111001011000101 .
b1111001011000101 3
b1111001011000101 ]
b1001011110011110 L
b1111001011000101 5
b1101111110001111 %
b1101111110001111 *
b1101111110001111 G
b1001011110011110 $
b1001011110011110 )
b1001011110011110 F
b100101000010000 #
b100101000010000 (
b100101000010000 0
b1111001011000101 "
b1111001011000101 '
b1111001011000101 /
#9
b101100000010010 !
b101100000010010 ,
b101100000010010 a
b101100000010010 b
b101100000010010 -
b101100000010010 J
b101100000010010 ^
b11110100110000 .
b11110100110000 3
b11110100110000 ]
01
0H
b101100000010010 K
b0 L
b11110100110000 4
b0 5
12
1I
b11 &
b11 +
b101100000010010 %
b101100000010010 *
b101100000010010 G
b110001100111011 $
b110001100111011 )
b110001100111011 F
b11110100110000 #
b11110100110000 (
b11110100110000 0
b1111001100110100 "
b1111001100110100 '
b1111001100110100 /
#10
b1001000111001001 !
b1001000111001001 ,
b1001000111001001 a
b1001000111001001 b
b1001000111001001 -
b1001000111001001 J
b1001000111001001 ^
b1101011000100011 .
b1101011000100011 3
b1101011000100011 ]
b1001000111001001 K
b1101011000100011 4
b1001000111001001 %
b1001000111001001 *
b1001000111001001 G
b1101011011110101 $
b1101011011110101 )
b1101011011110101 F
b1101011000100011 #
b1101011000100011 (
b1101011000100011 0
b1111001110001000 "
b1111001110001000 '
b1111001110001000 /
#11
b110111111001110 !
b110111111001110 ,
b110111111001110 a
b1000110010000101 -
b1000110010000101 J
b1000110010000101 ^
b110111111001110 .
b110111111001110 3
b110111111001110 ]
b110111111001110 c
1_
b0 b
b1000110010000101 K
b110111111001110 4
0`
b1 &
b1 +
b1000110010000101 %
b1000110010000101 *
b1000110010000101 G
b1001001000011000 $
b1001001000011000 )
b1001001000011000 F
b110111111001110 #
b110111111001110 (
b110111111001110 0
b1111100110011011 "
b1111100110011011 '
b1111100110011011 /
#12
b1001100111011010 !
b1001100111011010 ,
b1001100111011010 a
b1001100111011010 c
b1111110101001110 -
b1111110101001110 J
b1111110101001110 ^
b1001100111011010 .
b1001100111011010 3
b1001100111011010 ]
b1111110101001110 K
b1001100111011010 4
b1111110101001110 %
b1111110101001110 *
b1111110101001110 G
b10011000110110 $
b10011000110110 )
b10011000110110 F
b1001100111011010 #
b1001100111011010 (
b1001100111011010 0
b1111101101001100 "
b1111101101001100 '
b1111101101001100 /
#13
b101000110000 !
b101000110000 ,
b101000110000 a
b101000110000 -
b101000110000 J
b101000110000 ^
b111100110001000 .
b111100110001000 3
b111100110001000 ]
b0 c
0_
b101000110000 b
b101000110000 K
b111100110001000 4
1`
b11 &
b11 +
b101000110000 %
b101000110000 *
b101000110000 G
b111110100011000 $
b111110100011000 )
b111110100011000 F
b111100110001000 #
b111100110001000 (
b111100110001000 0
b1111111001111111 "
b1111111001111111 '
b1111111001111111 /
#14
b1110010111001110 !
b1110010111001110 ,
b1110010111001110 a
b1110010111001110 b
b1110010111001110 -
b1110010111001110 J
b1110010111001110 ^
b1000111101 .
b1000111101 3
b1000111101 ]
b1000111101 5
b1110010111001110 L
11
1H
b0 K
b0 4
02
0I
b10 &
b10 +
b1001001011101 %
b1001001011101 *
b1001001011101 G
b1110010111001110 $
b1110010111001110 )
b1110010111001110 F
b1110011111001100 #
b1110011111001100 (
b1110011111001100 0
b1000111101 "
b1000111101 '
b1000111101 /
#15
b1101101010100001 !
b1101101010100001 ,
b1101101010100001 a
b100110001000110 -
b100110001000110 J
b100110001000110 ^
b1101101010100001 .
b1101101010100001 3
b1101101010100001 ]
b1101101010100001 c
01
0H
1_
b0 b
b100110001000110 K
b0 L
b1101101010100001 4
b0 5
12
1I
0`
b1 &
b1 +
b100110001000110 %
b100110001000110 *
b100110001000110 G
b110111100101010 $
b110111100101010 )
b110111100101010 F
b1101101010100001 #
b1101101010100001 (
b1101101010100001 0
b1011110011 "
b1011110011 '
b1011110011 /
#16
b1111001010011100 !
b1111001010011100 ,
b1111001010011100 a
b1111001010011100 -
b1111001010011100 J
b1111001010011100 ^
b110000101000111 .
b110000101000111 3
b110000101000111 ]
b0 c
0_
b1111001010011100 b
b1111001010011100 K
b110000101000111 4
1`
b11 &
b11 +
b1111001010011100 %
b1111001010011100 *
b1111001010011100 G
b10100111100100 $
b10100111100100 )
b10100111100100 F
b110000101000111 #
b110000101000111 (
b110000101000111 0
b10001011100 "
b10001011100 '
b10001011100 /
#17
b11010111011010 !
b11010111011010 ,
b11010111011010 a
b11010111011010 b
b11010111011010 -
b11010111011010 J
b11010111011010 ^
b11000110010011 .
b11000110010011 3
b11000110010011 ]
b11010111011010 K
b11000110010011 4
b11010111011010 %
b11010111011010 *
b11010111011010 G
b111010110000010 $
b111010110000010 )
b111010110000010 F
b11000110010011 #
b11000110010011 (
b11000110010011 0
b11001010000 "
b11001010000 '
b11001010000 /
#18
b100110111011011 !
b100110111011011 ,
b100110111011011 a
b101010100111000 -
b101010100111000 J
b101010100111000 ^
b100110111011011 .
b100110111011011 3
b100110111011011 ]
b100110111011011 c
1_
b0 b
b101010100111000 K
b100110111011011 4
0`
b1 &
b1 +
b101010100111000 %
b101010100111000 *
b101010100111000 G
b101100000100 $
b101100000100 )
b101100000100 F
b100110111011011 #
b100110111011011 (
b100110111011011 0
b11110100110 "
b11110100110 '
b11110100110 /
#19
b111100001111100 !
b111100001111100 ,
b111100001111100 a
b111100001111100 c
b110011000010001 -
b110011000010001 J
b110011000010001 ^
b111100001111100 .
b111100001111100 3
b111100001111100 ]
b110011000010001 K
b111100001111100 4
b110011000010001 %
b110011000010001 *
b110011000010001 G
b11110011011010 $
b11110011011010 )
b11110011011010 F
b111100001111100 #
b111100001111100 (
b111100001111100 0
b100011101101 "
b100011101101 '
b100011101101 /
#20
b111001000010100 !
b111001000010100 ,
b111001000010100 a
b111001000010100 -
b111001000010100 J
b111001000010100 ^
b1110110110100001 .
b1110110110100001 3
b1110110110100001 ]
b0 c
0_
b111001000010100 b
b111001000010100 K
b1110110110100001 4
1`
b11 &
b11 +
b111001000010100 %
b111001000010100 *
b111001000010100 G
b1010001111000010 $
b1010001111000010 )
b1010001111000010 F
b1110110110100001 #
b1110110110100001 (
b1110110110100001 0
b101011001111 "
b101011001111 '
b101011001111 /
#21
b10011100011111 !
b10011100011111 ,
b10011100011111 a
b10011100011111 b
b10011100011111 -
b10011100011111 J
b10011100011111 ^
b110001001110 .
b110001001110 3
b110001001110 ]
b110001001110 5
b10011100011111 L
11
1H
b0 K
b0 4
02
0I
b10 &
b10 +
b100110010010101 %
b100110010010101 *
b100110010010101 G
b10011100011111 $
b10011100011111 )
b10011100011111 F
b1111100101001011 #
b1111100101001011 (
b1111100101001011 0
b110001001110 "
b110001001110 '
b110001001110 /
#22
b1011010100100011 !
b1011010100100011 ,
b1011010100100011 a
b1011010100100011 b
b1011010100100011 -
b1011010100100011 J
b1011010100100011 ^
b110010110001 .
b110010110001 3
b110010110001 ]
b1011010100100011 L
b110010110001 5
b1111100111100110 %
b1111100111100110 *
b1111100111100110 G
b1011010100100011 $
b1011010100100011 )
b1011010100100011 F
b1110000011001001 #
b1110000011001001 (
b1110000011001001 0
b110010110001 "
b110010110001 '
b110010110001 /
#23
b10111001000011 !
b10111001000011 ,
b10111001000011 a
b10111001000011 b
b10111001000011 -
b10111001000011 J
b10111001000011 ^
b1010011010001 .
b1010011010001 3
b1010011010001 ]
b10111001000011 L
b1010011010001 5
b1010001100100010 %
b1010001100100010 *
b1010001100100010 G
b10111001000011 $
b10111001000011 )
b10111001000011 F
b11001110111010 #
b11001110111010 (
b11001110111010 0
b1010011010001 "
b1010011010001 '
b1010011010001 /
#24
b1000000111000100 !
b1000000111000100 ,
b1000000111000100 a
b1010100000100110 -
b1010100000100110 J
b1010100000100110 ^
b1000000111000100 .
b1000000111000100 3
b1000000111000100 ]
b1000000111000100 c
01
0H
1_
b0 b
b1010100000100110 K
b0 L
b1000000111000100 4
b0 5
12
1I
0`
b1 &
b1 +
b1010100000100110 %
b1010100000100110 *
b1010100000100110 G
b100011011001010 $
b100011011001010 )
b100011011001010 F
b1000000111000100 #
b1000000111000100 (
b1000000111000100 0
b1011010001001 "
b1011010001001 '
b1011010001001 /
#25
b1010101010011101 !
b1010101010011101 ,
b1010101010011101 a
b1010101010011101 c
b1001100010100001 -
b1001100010100001 J
b1001100010100001 ^
b1010101010011101 .
b1010101010011101 3
b1010101010011101 ]
b1001100010100001 K
b1010101010011101 4
b1001100010100001 %
b1001100010100001 *
b1001100010100001 G
b1100110101000100 $
b1100110101000100 )
b1100110101000100 F
b1010101010011101 #
b1010101010011101 (
b1010101010011101 0
b1011101110111 "
b1011101110111 '
b1011101110111 /
#26
b1110010010000110 !
b1110010010000110 ,
b1110010010000110 a
b1110010010000110 -
b1110010010000110 J
b1110010010000110 ^
b1111000010110 .
b1111000010110 3
b1111000010110 ]
b1111000010110 5
b1110010010000110 L
b0 c
11
1H
0_
b1110010010000110 b
b0 K
b0 4
02
0I
1`
b10 &
b10 +
b1100001111011110 %
b1100001111011110 *
b1100001111011110 G
b1110010010000110 $
b1110010010000110 )
b1110010010000110 F
b1000010111111 #
b1000010111111 (
b1000010111111 0
b1111000010110 "
b1111000010110 '
b1111000010110 /
#27
b1111001000011 !
b1111001000011 ,
b1111001000011 a
b1101000011011100 -
b1101000011011100 J
b1101000011011100 ^
b1111001000011 .
b1111001000011 3
b1111001000011 ]
b1111001000011 c
1_
b0 b
b1101000011011100 L
b1111001000011 5
0`
b0 &
b0 +
b1111010101111100 %
b1111010101111100 *
b1111010101111100 G
b1101000011011100 $
b1101000011011100 )
b1101000011011100 F
b110110111000001 #
b110110111000001 (
b110110111000001 0
b1111001000011 "
b1111001000011 '
b1111001000011 /
#28
b110111111000101 !
b110111111000101 ,
b110111111000101 a
b110111111000101 -
b110111111000101 J
b110111111000101 ^
b100011010000000 .
b100011010000000 3
b100011010000000 ]
b0 c
01
0H
0_
b110111111000101 b
b110111111000101 K
b0 L
b100011010000000 4
b0 5
12
1I
1`
b11 &
b11 +
b110111111000101 %
b110111111000101 *
b110111111000101 G
b1111101101010000 $
b1111101101010000 )
b1111101101010000 F
b100011010000000 #
b100011010000000 (
b100011010000000 0
b1111010011011 "
b1111010011011 '
b1111010011011 /
#29
b1111111111111111 !
b1111111111111111 ,
b1111111111111111 a
b1111111111111111 b
b1111111111111111 -
b1111111111111111 J
b1111111111111111 ^
b1111111111111111 .
b1111111111111111 3
b1111111111111111 ]
b1111111111111111 K
b1111111111111111 4
b1111111111111111 %
b1111111111111111 *
b1111111111111111 G
b1111111111111111 $
b1111111111111111 )
b1111111111111111 F
b1111111111111111 #
b1111111111111111 (
b1111111111111111 0
b1111111111111111 "
b1111111111111111 '
b1111111111111111 /
