components/mux16/tb_Mux16.vcd
$date
	Sun Oct 08 19:36:30 2023
$end
$version
	Icarus Verilog
$end
$timescale
	1s
$end
$scope module tb_Mux16 $end
$var wire 16 ! out [15:0] $end
$var reg 16 " a [15:0] $end
$var reg 16 # b [15:0] $end
$var reg 1 $ sel $end
$scope module mymodule $end
$var wire 16 % a [15:0] $end
$var wire 16 & b [15:0] $end
$var wire 1 ' not_sel $end
$var wire 1 $ sel $end
$var wire 16 ( out [15:0] $end
$var wire 16 ) b1 [15:0] $end
$var wire 16 * a1 [15:0] $end
$upscope $end
$upscope $end
$enddefinitions $end
$comment Show the parameter values. $end
$dumpall
$end
#0
$dumpvars
b0 *
b1111010 )
b1111010 (
0'
b1111010 &
b110011000011 %
1$
b1111010 #
b110011000011 "
b1111010 !
$end
#1
b111000001111 !
b111000001111 (
b111000001111 *
1'
b0 )
0$
b100000110110 #
b100000110110 &
b111000001111 "
b111000001111 %
#2
b1100100001100 !
b1100100001100 (
b1100100001100 *
b100110001101000 #
b100110001101000 &
b1100100001100 "
b1100100001100 %
#3
b1101001100011 !
b1101001100011 (
b1101001100011 *
b1001111001010110 #
b1001111001010110 &
b1101001100011 "
b1101001100011 %
#4
b11001001010101 !
b11001001010101 (
b0 *
0'
b11001001010101 )
1$
b11001001010101 #
b11001001010101 &
b1111111001111 "
b1111111001111 %
#5
b1010000100000111 !
b1010000100000111 (
b1010000100000111 )
b1010000100000111 #
b1010000100000111 &
b11111010001001 "
b11111010001001 %
#6
b101010010000001 !
b101010010000001 (
b101010010000001 *
1'
b0 )
0$
b100111111010 #
b100111111010 &
b101010010000001 "
b101010010000001 %
#7
b101101100011001 !
b101101100011001 (
b101101100011001 *
b1111010101111010 #
b1111010101111010 &
b101101100011001 "
b101101100011001 %
#8
b1000010000000110 !
b1000010000000110 (
b0 *
0'
b1000010000000110 )
1$
b1000010000000110 #
b1000010000000110 &
b101101101111000 "
b101101101111000 %
#9
b1000001001001011 !
b1000001001001011 (
b1000001001001011 )
b1000001001001011 #
b1000001001001011 &
b110000101101101 "
b110000101101101 %
#10
b111001010110 !
b111001010110 (
b111001010110 )
b111001010110 #
b111001010110 &
b110101000000010 "
b110101000000010 %
#11
b110110101100010 !
b110110101100010 (
b110110101100010 *
1'
b0 )
0$
b1010000010001001 #
b1010000010001001 &
b110110101100010 "
b110110101100010 %
#12
b110101110110 !
b110101110110 (
b0 *
0'
b110101110110 )
1$
b110101110110 #
b110101110110 &
b1000000000011010 "
b1000000000011010 %
#13
b1001111000010000 !
b1001111000010000 (
b1001111000010000 )
b1001111000010000 #
b1001111000010000 &
b1000010101010011 "
b1000010101010011 %
#14
b1001010101000 !
b1001010101000 (
b1001010101000 )
b1001010101000 #
b1001010101000 &
b1001000011011000 "
b1001000011011000 %
#15
b110000010111011 !
b110000010111011 (
b110000010111011 )
b110000010111011 #
b110000010111011 &
b1001011000000000 "
b1001011000000000 %
#16
b1001011111100010 !
b1001011111100010 (
b1001011111100010 *
1'
b0 )
0$
b1100111111110100 #
b1100111111110100 &
b1001011111100010 "
b1001011111100010 %
#17
b1011110000111010 !
b1011110000111010 (
b0 *
0'
b1011110000111010 )
1$
b1011110000111010 #
b1011110000111010 &
b1010000010110101 "
b1010000010110101 %
#18
b1010011111010011 !
b1010011111010011 (
b1010011111010011 *
1'
b0 )
0$
b1011000011010011 #
b1011000011010011 &
b1010011111010011 "
b1010011111010011 %
#19
b1010010000010011 !
b1010010000010011 (
b0 *
0'
b1010010000010011 )
1$
b1010010000010011 #
b1010010000010011 &
b1010111000111101 "
b1010111000111101 %
#20
b1010111110101000 !
b1010111110101000 (
b1010111110101000 )
b1010111110101000 #
b1010111110101000 &
b1011001011001010 "
b1011001011001010 %
#21
b1101011011110011 !
b1101011011110011 (
b1101011011110011 )
b1101011011110011 #
b1101011011110011 &
b1011010010111110 "
b1011010010111110 %
#22
b1111001111010001 !
b1111001111010001 (
b1111001111010001 )
b1111001111010001 #
b1111001111010001 &
b1011011110111011 "
b1011011110111011 %
#23
b1011111010111110 !
b1011111010111110 (
b1011111010111110 *
1'
b0 )
0$
b1001000011000010 #
b1001000011000010 &
b1011111010111110 "
b1011111010111110 %
#24
b1100010010101110 !
b1100010010101110 (
b1100010010101110 *
b111011001100010 #
b111011001100010 &
b1100010010101110 "
b1100010010101110 %
#25
b1101101011101010 !
b1101101011101010 (
b1101101011101010 *
b1000111001001010 #
b1000111001001010 &
b1101101011101010 "
b1101101011101010 %
#26
b11010011100000 !
b11010011100000 (
b0 *
0'
b11010011100000 )
1$
b11010011100000 #
b11010011100000 &
b1101101110110101 "
b1101101110110101 %
#27
b110001000001111 !
b110001000001111 (
b110001000001111 )
b110001000001111 #
b110001000001111 &
b1101110000100011 "
b1101110000100011 %
#28
b1110100111001111 !
b1110100111001111 (
b1110100111001111 *
1'
b0 )
0$
b1010001100110110 #
b1010001100110110 &
b1110100111001111 "
b1110100111001111 %
#29
b1111000011011110 !
b1111000011011110 (
b1111000011011110 *
b100101100011010 #
b100101100011010 &
b1111000011011110 "
b1111000011011110 %
