components/or16/tb_Or16.vcd
$date
	Tue Sep 05 15:25:34 2023
$end
$version
	Icarus Verilog
$end
$timescale
	1s
$end
$scope module tb_Or16 $end
$var wire 16 ! out [15:0] $end
$var reg 16 " a [15:0] $end
$var reg 16 # b [15:0] $end
$scope module mymodule $end
$var wire 16 $ in1 [15:0] $end
$var wire 16 % in2 [15:0] $end
$var wire 16 & out [15:0] $end
$scope begin genblk1[0] $end
$var parameter 2 ' i $end
$upscope $end
$scope begin genblk1[1] $end
$var parameter 2 ( i $end
$upscope $end
$scope begin genblk1[2] $end
$var parameter 3 ) i $end
$upscope $end
$scope begin genblk1[3] $end
$var parameter 3 * i $end
$upscope $end
$scope begin genblk1[4] $end
$var parameter 4 + i $end
$upscope $end
$scope begin genblk1[5] $end
$var parameter 4 , i $end
$upscope $end
$scope begin genblk1[6] $end
$var parameter 4 - i $end
$upscope $end
$scope begin genblk1[7] $end
$var parameter 4 . i $end
$upscope $end
$scope begin genblk1[8] $end
$var parameter 5 / i $end
$upscope $end
$scope begin genblk1[9] $end
$var parameter 5 0 i $end
$upscope $end
$scope begin genblk1[10] $end
$var parameter 5 1 i $end
$upscope $end
$scope begin genblk1[11] $end
$var parameter 5 2 i $end
$upscope $end
$scope begin genblk1[12] $end
$var parameter 5 3 i $end
$upscope $end
$scope begin genblk1[13] $end
$var parameter 5 4 i $end
$upscope $end
$scope begin genblk1[14] $end
$var parameter 5 5 i $end
$upscope $end
$scope begin genblk1[15] $end
$var parameter 5 6 i $end
$upscope $end
$upscope $end
$upscope $end
$enddefinitions $end
$comment Show the parameter values. $end
$dumpall
b1111 6
b1110 5
b1101 4
b1100 3
b1011 2
b1010 1
b1001 0
b1000 /
b111 .
b110 -
b101 ,
b100 +
b11 *
b10 )
b1 (
b0 '
$end
#0
$dumpvars
b1101111001111111 &
b1101111001010111 %
b10001101010 $
b1101111001010111 #
b10001101010 "
b1101111001111111 !
$end
#1
b1011111011000 !
b1011111011000 &
b1000110011000 #
b1000110011000 %
b11111011000 "
b11111011000 $
#2
b1101011111101011 !
b1101011111101011 &
b1101011101101011 #
b1101011101101011 %
b1000011000000 "
b1000011000000 $
#3
b1111111000101 !
b1111111000101 &
b110101000001 #
b110101000001 %
b1011010000101 "
b1011010000101 $
#4
b1101111111101111 !
b1101111111101111 &
b1101101001100110 #
b1101101001100110 %
b1110111001011 "
b1110111001011 $
#5
b10101111011111 !
b10101111011111 &
b101101001011 #
b101101001011 %
b10001011010110 "
b10001011010110 $
#6
b11110101111110 !
b11110101111110 &
b11100101011100 #
b11100101011100 %
b10010101100010 "
b10010101100010 $
#7
b1011110101111001 !
b1011110101111001 &
b1001100001111001 #
b1001100001111001 %
b10110100111001 "
b10110100111001 $
#8
b1111111111111110 !
b1111111111111110 &
b1111011011011000 #
b1111011011011000 %
b10111100101110 "
b10111100101110 $
#9
b111001111101110 !
b111001111101110 &
b101001011101100 #
b101001011101100 %
b11000100101110 "
b11000100101110 $
#10
b11001111111111 !
b11001111111111 &
b10001101100111 #
b10001101100111 %
b11001010111100 "
b11001010111100 $
#11
b1111001111110110 !
b1111001111110110 &
b1110000110100110 #
b1110000110100110 %
b11001101110010 "
b11001101110010 $
#12
b1111111110011111 !
b1111111110011111 &
b1111111010001110 #
b1111111010001110 %
b100101100010001 "
b100101100010001 $
#13
b111001011011011 !
b111001011011011 &
b10001011011011 #
b10001011011011 %
b101001000011011 "
b101001000011011 $
#14
b1101101101010110 !
b1101101101010110 &
b1000100001010010 #
b1000100001010010 %
b101001101010100 "
b101001101010100 $
#15
b101011101111111 !
b101011101111111 &
b100000100110111 #
b100000100110111 %
b101011101101011 "
b101011101101011 $
#16
b1111010110111111 !
b1111010110111111 &
b1000010010100101 #
b1000010010100101 %
b111010100111111 "
b111010100111111 $
#17
b1111111111110110 !
b1111111111110110 &
b1011111101010000 #
b1011111101010000 %
b111101111110110 "
b111101111110110 $
#18
b1111110111101111 !
b1111110111101111 &
b1010110000001110 #
b1010110000001110 %
b111110111101111 "
b111110111101111 $
#19
b1001111111111111 !
b1001111111111111 &
b1111101101011 #
b1111101101011 %
b1000011111011101 "
b1000011111011101 $
#20
b1100111111110011 !
b1100111111110011 &
b100101111100001 #
b100101111100001 %
b1000110000010011 "
b1000110000010011 $
#21
b1011111101011011 !
b1011111101011011 &
b11001000010011 #
b11001000010011 %
b1000110101011001 "
b1000110101011001 $
#22
b1111111101101110 !
b1111111101101110 &
b111110101101110 #
b111110101101110 %
b1001011001001000 "
b1001011001001000 $
#23
b1001101111111111 !
b1001101111111111 &
b1000100111101100 #
b1000100111101100 %
b1001101011110111 "
b1001101011110111 $
#24
b1111101011000110 !
b1111101011000110 &
b111001011000110 #
b111001011000110 %
b1010101000000010 "
b1010101000000010 $
#25
b1111001101111111 !
b1111001101111111 &
b111001001011111 #
b111001001011111 %
b1011001100111001 "
b1011001100111001 $
#26
b1111101011010101 !
b1111101011010101 &
b1110001000010101 #
b1110001000010101 %
b1011101011000001 "
b1011101011000001 $
#27
b1101110111111000 !
b1101110111111000 &
b1000101101000 #
b1000101101000 %
b1100110111011000 "
b1100110111011000 $
#28
b1110111101110111 !
b1110111101110111 &
b1010010100110110 #
b1010010100110110 %
b1100111001100101 "
b1100111001100101 $
#29
b1111000111011101 !
b1111000111011101 &
b1011000111000101 #
b1011000111000101 %
b1111000111011001 "
b1111000111011001 $
