components/mux8way16/tb_Mux8Way16.vcd
$date
	Tue Sep 12 15:36:11 2023
$end
$version
	Icarus Verilog
$end
$timescale
	1s
$end
$scope module tb_Mux8Way16 $end
$var wire 16 ! out [15:0] $end
$var reg 16 " a [15:0] $end
$var reg 16 # b [15:0] $end
$var reg 16 $ c [15:0] $end
$var reg 16 % d [15:0] $end
$var reg 16 & e [15:0] $end
$var reg 16 ' f [15:0] $end
$var reg 16 ( g [15:0] $end
$var reg 16 ) h [15:0] $end
$var reg 3 * sel [2:0] $end
$scope module mymodule $end
$var wire 16 + in_A [15:0] $end
$var wire 16 , in_B [15:0] $end
$var wire 16 - in_C [15:0] $end
$var wire 16 . in_D [15:0] $end
$var wire 16 / in_E [15:0] $end
$var wire 16 0 in_F [15:0] $end
$var wire 16 1 in_G [15:0] $end
$var wire 16 2 in_H [15:0] $end
$var wire 3 3 sel [2:0] $end
$var wire 16 4 out [15:0] $end
$var wire 16 5 mux4way16_EFGH [15:0] $end
$var wire 16 6 mux4way16_ABCD [15:0] $end
$scope module mux_moduleABCD $end
$var wire 16 7 in_A [15:0] $end
$var wire 16 8 in_B [15:0] $end
$var wire 16 9 in_C [15:0] $end
$var wire 16 : in_D [15:0] $end
$var wire 2 ; sel [1:0] $end
$var wire 16 < out [15:0] $end
$var wire 16 = mux16_CD [15:0] $end
$var wire 16 > mux16_AB [15:0] $end
$scope module mux_moduleAB $end
$var wire 16 ? a [15:0] $end
$var wire 16 @ b [15:0] $end
$var wire 1 A not_sel $end
$var wire 1 B sel $end
$var wire 16 C out [15:0] $end
$var wire 16 D b1 [15:0] $end
$var wire 16 E a1 [15:0] $end
$scope begin genblk1[0] $end
$var parameter 2 F i $end
$upscope $end
$scope begin genblk1[1] $end
$var parameter 2 G i $end
$upscope $end
$scope begin genblk1[2] $end
$var parameter 3 H i $end
$upscope $end
$scope begin genblk1[3] $end
$var parameter 3 I i $end
$upscope $end
$scope begin genblk1[4] $end
$var parameter 4 J i $end
$upscope $end
$scope begin genblk1[5] $end
$var parameter 4 K i $end
$upscope $end
$scope begin genblk1[6] $end
$var parameter 4 L i $end
$upscope $end
$scope begin genblk1[7] $end
$var parameter 4 M i $end
$upscope $end
$scope begin genblk1[8] $end
$var parameter 5 N i $end
$upscope $end
$scope begin genblk1[9] $end
$var parameter 5 O i $end
$upscope $end
$scope begin genblk1[10] $end
$var parameter 5 P i $end
$upscope $end
$scope begin genblk1[11] $end
$var parameter 5 Q i $end
$upscope $end
$scope begin genblk1[12] $end
$var parameter 5 R i $end
$upscope $end
$scope begin genblk1[13] $end
$var parameter 5 S i $end
$upscope $end
$scope begin genblk1[14] $end
$var parameter 5 T i $end
$upscope $end
$scope begin genblk1[15] $end
$var parameter 5 U i $end
$upscope $end
$upscope $end
$scope module mux_moduleCD $end
$var wire 16 V a [15:0] $end
$var wire 16 W b [15:0] $end
$var wire 1 X not_sel $end
$var wire 1 Y sel $end
$var wire 16 Z out [15:0] $end
$var wire 16 [ b1 [15:0] $end
$var wire 16 \ a1 [15:0] $end
$scope begin genblk1[0] $end
$var parameter 2 ] i $end
$upscope $end
$scope begin genblk1[1] $end
$var parameter 2 ^ i $end
$upscope $end
$scope begin genblk1[2] $end
$var parameter 3 _ i $end
$upscope $end
$scope begin genblk1[3] $end
$var parameter 3 ` i $end
$upscope $end
$scope begin genblk1[4] $end
$var parameter 4 a i $end
$upscope $end
$scope begin genblk1[5] $end
$var parameter 4 b i $end
$upscope $end
$scope begin genblk1[6] $end
$var parameter 4 c i $end
$upscope $end
$scope begin genblk1[7] $end
$var parameter 4 d i $end
$upscope $end
$scope begin genblk1[8] $end
$var parameter 5 e i $end
$upscope $end
$scope begin genblk1[9] $end
$var parameter 5 f i $end
$upscope $end
$scope begin genblk1[10] $end
$var parameter 5 g i $end
$upscope $end
$scope begin genblk1[11] $end
$var parameter 5 h i $end
$upscope $end
$scope begin genblk1[12] $end
$var parameter 5 i i $end
$upscope $end
$scope begin genblk1[13] $end
$var parameter 5 j i $end
$upscope $end
$scope begin genblk1[14] $end
$var parameter 5 k i $end
$upscope $end
$scope begin genblk1[15] $end
$var parameter 5 l i $end
$upscope $end
$upscope $end
$scope module mux_moduleOut $end
$var wire 16 m a [15:0] $end
$var wire 16 n b [15:0] $end
$var wire 1 o not_sel $end
$var wire 1 p sel $end
$var wire 16 q out [15:0] $end
$var wire 16 r b1 [15:0] $end
$var wire 16 s a1 [15:0] $end
$scope begin genblk1[0] $end
$var parameter 2 t i $end
$upscope $end
$scope begin genblk1[1] $end
$var parameter 2 u i $end
$upscope $end
$scope begin genblk1[2] $end
$var parameter 3 v i $end
$upscope $end
$scope begin genblk1[3] $end
$var parameter 3 w i $end
$upscope $end
$scope begin genblk1[4] $end
$var parameter 4 x i $end
$upscope $end
$scope begin genblk1[5] $end
$var parameter 4 y i $end
$upscope $end
$scope begin genblk1[6] $end
$var parameter 4 z i $end
$upscope $end
$scope begin genblk1[7] $end
$var parameter 4 { i $end
$upscope $end
$scope begin genblk1[8] $end
$var parameter 5 | i $end
$upscope $end
$scope begin genblk1[9] $end
$var parameter 5 } i $end
$upscope $end
$scope begin genblk1[10] $end
$var parameter 5 ~ i $end
$upscope $end
$scope begin genblk1[11] $end
$var parameter 5 !" i $end
$upscope $end
$scope begin genblk1[12] $end
$var parameter 5 "" i $end
$upscope $end
$scope begin genblk1[13] $end
$var parameter 5 #" i $end
$upscope $end
$scope begin genblk1[14] $end
$var parameter 5 $" i $end
$upscope $end
$scope begin genblk1[15] $end
$var parameter 5 %" i $end
$upscope $end
$upscope $end
$upscope $end
$scope module mux_moduleEFGH $end
$var wire 16 &" in_A [15:0] $end
$var wire 16 '" in_B [15:0] $end
$var wire 16 (" in_C [15:0] $end
$var wire 16 )" in_D [15:0] $end
$var wire 2 *" sel [1:0] $end
$var wire 16 +" out [15:0] $end
$var wire 16 ," mux16_CD [15:0] $end
$var wire 16 -" mux16_AB [15:0] $end
$scope module mux_moduleAB $end
$var wire 16 ." a [15:0] $end
$var wire 16 /" b [15:0] $end
$var wire 1 0" not_sel $end
$var wire 1 1" sel $end
$var wire 16 2" out [15:0] $end
$var wire 16 3" b1 [15:0] $end
$var wire 16 4" a1 [15:0] $end
$scope begin genblk1[0] $end
$var parameter 2 5" i $end
$upscope $end
$scope begin genblk1[1] $end
$var parameter 2 6" i $end
$upscope $end
$scope begin genblk1[2] $end
$var parameter 3 7" i $end
$upscope $end
$scope begin genblk1[3] $end
$var parameter 3 8" i $end
$upscope $end
$scope begin genblk1[4] $end
$var parameter 4 9" i $end
$upscope $end
$scope begin genblk1[5] $end
$var parameter 4 :" i $end
$upscope $end
$scope begin genblk1[6] $end
$var parameter 4 ;" i $end
$upscope $end
$scope begin genblk1[7] $end
$var parameter 4 <" i $end
$upscope $end
$scope begin genblk1[8] $end
$var parameter 5 =" i $end
$upscope $end
$scope begin genblk1[9] $end
$var parameter 5 >" i $end
$upscope $end
$scope begin genblk1[10] $end
$var parameter 5 ?" i $end
$upscope $end
$scope begin genblk1[11] $end
$var parameter 5 @" i $end
$upscope $end
$scope begin genblk1[12] $end
$var parameter 5 A" i $end
$upscope $end
$scope begin genblk1[13] $end
$var parameter 5 B" i $end
$upscope $end
$scope begin genblk1[14] $end
$var parameter 5 C" i $end
$upscope $end
$scope begin genblk1[15] $end
$var parameter 5 D" i $end
$upscope $end
$upscope $end
$scope module mux_moduleCD $end
$var wire 16 E" a [15:0] $end
$var wire 16 F" b [15:0] $end
$var wire 1 G" not_sel $end
$var wire 1 H" sel $end
$var wire 16 I" out [15:0] $end
$var wire 16 J" b1 [15:0] $end
$var wire 16 K" a1 [15:0] $end
$scope begin genblk1[0] $end
$var parameter 2 L" i $end
$upscope $end
$scope begin genblk1[1] $end
$var parameter 2 M" i $end
$upscope $end
$scope begin genblk1[2] $end
$var parameter 3 N" i $end
$upscope $end
$scope begin genblk1[3] $end
$var parameter 3 O" i $end
$upscope $end
$scope begin genblk1[4] $end
$var parameter 4 P" i $end
$upscope $end
$scope begin genblk1[5] $end
$var parameter 4 Q" i $end
$upscope $end
$scope begin genblk1[6] $end
$var parameter 4 R" i $end
$upscope $end
$scope begin genblk1[7] $end
$var parameter 4 S" i $end
$upscope $end
$scope begin genblk1[8] $end
$var parameter 5 T" i $end
$upscope $end
$scope begin genblk1[9] $end
$var parameter 5 U" i $end
$upscope $end
$scope begin genblk1[10] $end
$var parameter 5 V" i $end
$upscope $end
$scope begin genblk1[11] $end
$var parameter 5 W" i $end
$upscope $end
$scope begin genblk1[12] $end
$var parameter 5 X" i $end
$upscope $end
$scope begin genblk1[13] $end
$var parameter 5 Y" i $end
$upscope $end
$scope begin genblk1[14] $end
$var parameter 5 Z" i $end
$upscope $end
$scope begin genblk1[15] $end
$var parameter 5 [" i $end
$upscope $end
$upscope $end
$scope module mux_moduleOut $end
$var wire 16 \" a [15:0] $end
$var wire 16 ]" b [15:0] $end
$var wire 1 ^" not_sel $end
$var wire 1 _" sel $end
$var wire 16 `" out [15:0] $end
$var wire 16 a" b1 [15:0] $end
$var wire 16 b" a1 [15:0] $end
$scope begin genblk1[0] $end
$var parameter 2 c" i $end
$upscope $end
$scope begin genblk1[1] $end
$var parameter 2 d" i $end
$upscope $end
$scope begin genblk1[2] $end
$var parameter 3 e" i $end
$upscope $end
$scope begin genblk1[3] $end
$var parameter 3 f" i $end
$upscope $end
$scope begin genblk1[4] $end
$var parameter 4 g" i $end
$upscope $end
$scope begin genblk1[5] $end
$var parameter 4 h" i $end
$upscope $end
$scope begin genblk1[6] $end
$var parameter 4 i" i $end
$upscope $end
$scope begin genblk1[7] $end
$var parameter 4 j" i $end
$upscope $end
$scope begin genblk1[8] $end
$var parameter 5 k" i $end
$upscope $end
$scope begin genblk1[9] $end
$var parameter 5 l" i $end
$upscope $end
$scope begin genblk1[10] $end
$var parameter 5 m" i $end
$upscope $end
$scope begin genblk1[11] $end
$var parameter 5 n" i $end
$upscope $end
$scope begin genblk1[12] $end
$var parameter 5 o" i $end
$upscope $end
$scope begin genblk1[13] $end
$var parameter 5 p" i $end
$upscope $end
$scope begin genblk1[14] $end
$var parameter 5 q" i $end
$upscope $end
$scope begin genblk1[15] $end
$var parameter 5 r" i $end
$upscope $end
$upscope $end
$upscope $end
$scope module mux_moduleOut $end
$var wire 16 s" a [15:0] $end
$var wire 16 t" b [15:0] $end
$var wire 1 u" not_sel $end
$var wire 1 v" sel $end
$var wire 16 w" out [15:0] $end
$var wire 16 x" b1 [15:0] $end
$var wire 16 y" a1 [15:0] $end
$scope begin genblk1[0] $end
$var parameter 2 z" i $end
$upscope $end
$scope begin genblk1[1] $end
$var parameter 2 {" i $end
$upscope $end
$scope begin genblk1[2] $end
$var parameter 3 |" i $end
$upscope $end
$scope begin genblk1[3] $end
$var parameter 3 }" i $end
$upscope $end
$scope begin genblk1[4] $end
$var parameter 4 ~" i $end
$upscope $end
$scope begin genblk1[5] $end
$var parameter 4 !# i $end
$upscope $end
$scope begin genblk1[6] $end
$var parameter 4 "# i $end
$upscope $end
$scope begin genblk1[7] $end
$var parameter 4 ## i $end
$upscope $end
$scope begin genblk1[8] $end
$var parameter 5 $# i $end
$upscope $end
$scope begin genblk1[9] $end
$var parameter 5 %# i $end
$upscope $end
$scope begin genblk1[10] $end
$var parameter 5 &# i $end
$upscope $end
$scope begin genblk1[11] $end
$var parameter 5 '# i $end
$upscope $end
$scope begin genblk1[12] $end
$var parameter 5 (# i $end
$upscope $end
$scope begin genblk1[13] $end
$var parameter 5 )# i $end
$upscope $end
$scope begin genblk1[14] $end
$var parameter 5 *# i $end
$upscope $end
$scope begin genblk1[15] $end
$var parameter 5 +# i $end
$upscope $end
$upscope $end
$upscope $end
$upscope $end
$enddefinitions $end
$comment Show the parameter values. $end
$dumpall
b1111 +#
b1110 *#
b1101 )#
b1100 (#
b1011 '#
b1010 &#
b1001 %#
b1000 $#
b111 ##
b110 "#
b101 !#
b100 ~"
b11 }"
b10 |"
b1 {"
b0 z"
b1111 r"
b1110 q"
b1101 p"
b1100 o"
b1011 n"
b1010 m"
b1001 l"
b1000 k"
b111 j"
b110 i"
b101 h"
b100 g"
b11 f"
b10 e"
b1 d"
b0 c"
b1111 ["
b1110 Z"
b1101 Y"
b1100 X"
b1011 W"
b1010 V"
b1001 U"
b1000 T"
b111 S"
b110 R"
b101 Q"
b100 P"
b11 O"
b10 N"
b1 M"
b0 L"
b1111 D"
b1110 C"
b1101 B"
b1100 A"
b1011 @"
b1010 ?"
b1001 >"
b1000 ="
b111 <"
b110 ;"
b101 :"
b100 9"
b11 8"
b10 7"
b1 6"
b0 5"
b1111 %"
b1110 $"
b1101 #"
b1100 ""
b1011 !"
b1010 ~
b1001 }
b1000 |
b111 {
b110 z
b101 y
b100 x
b11 w
b10 v
b1 u
b0 t
b1111 l
b1110 k
b1101 j
b1100 i
b1011 h
b1010 g
b1001 f
b1000 e
b111 d
b110 c
b101 b
b100 a
b11 `
b10 _
b1 ^
b0 ]
b1111 U
b1110 T
b1101 S
b1100 R
b1011 Q
b1010 P
b1001 O
b1000 N
b111 M
b110 L
b101 K
b100 J
b11 I
b10 H
b1 G
b0 F
$end
#0
$dumpvars
b0 y"
b0 x"
b0 w"
0v"
1u"
b0 t"
b0 s"
b0 b"
b0 a"
b0 `"
0_"
1^"
b0 ]"
b0 \"
b0 K"
b0 J"
b0 I"
0H"
1G"
b0 F"
b0 E"
b0 4"
b0 3"
b0 2"
01"
10"
b0 /"
b0 ."
b0 -"
b0 ,"
b0 +"
b0 *"
b0 )"
b0 ("
b0 '"
b0 &"
b0 s
b0 r
b0 q
0p
1o
b0 n
b0 m
b0 \
b0 [
b0 Z
0Y
1X
b0 W
b0 V
b0 E
b0 D
b0 C
0B
1A
b0 @
b0 ?
b0 >
b0 =
b0 <
b0 ;
b0 :
b0 9
b0 8
b0 7
b0 6
b0 5
b0 4
b0 3
b0 2
b0 1
b0 0
b0 /
b0 .
b0 -
b0 ,
b0 +
b0 *
b0 )
b0 (
b0 '
b0 &
b0 %
b0 $
b0 #
b0 "
b0 !
$end
#1
b1101101000101100 !
b1101101000101100 4
b1101101000101100 w"
b1101101000101100 x"
b1101101000101100 5
b1101101000101100 +"
b1101101000101100 `"
b1101101000101100 t"
b1111111111011000 6
b1111111111011000 <
b1111111111011000 q
b1111111111011000 s"
b1101101000101100 a"
b1111111111011000 r
b1101101000101100 ,"
b1101101000101100 I"
b1101101000101100 ]"
b111101000101001 -"
b111101000101001 2"
b111101000101001 \"
b1111111111011000 =
b1111111111011000 Z
b1111111111011000 n
b110100001010001 >
b110100001010001 C
b110100001010001 m
0A
b110100001010001 D
0X
b1111111111011000 [
0o
00"
b111101000101001 3"
0G"
b1101101000101100 J"
0^"
1B
1Y
1p
11"
1H"
1_"
0u"
b0 K"
b0 4"
b0 \
b0 E
b11 ;
b11 *"
1v"
b111 *
b111 3
b1101101000101100 )
b1101101000101100 2
b1101101000101100 )"
b1101101000101100 F"
b1001010101100000 (
b1001010101100000 1
b1001010101100000 ("
b1001010101100000 E"
b111101000101001 '
b111101000101001 0
b111101000101001 '"
b111101000101001 /"
b1100010000110101 &
b1100010000110101 /
b1100010000110101 &"
b1100010000110101 ."
b1111111111011000 %
b1111111111011000 .
b1111111111011000 :
b1111111111011000 W
b11110000010100 $
b11110000010100 -
b11110000010100 9
b11110000010100 V
b110100001010001 #
b110100001010001 ,
b110100001010001 8
b110100001010001 @
b1001000100111 "
b1001000100111 +
b1001000100111 7
b1001000100111 ?
#2
b1100100111000 6
b1100100111000 <
b1100100111000 q
b1100100111000 s"
b10101100101000 5
b10101100101000 +"
b10101100101000 `"
b10101100101000 t"
b1100100111000 E
b1101011000101010 \
b1100100111000 s
b10101100101000 4"
b111111001000110 K"
b10101100101000 b"
b1100100111000 !
b1100100111000 4
b1100100111000 w"
b111111001000110 ,"
b111111001000110 I"
b111111001000110 ]"
b10101100101000 -"
b10101100101000 2"
b10101100101000 \"
b1101011000101010 =
b1101011000101010 Z
b1101011000101010 n
b1100100111000 >
b1100100111000 C
b1100100111000 m
1A
1X
1o
b0 r
10"
1G"
1^"
b0 a"
b1100100111000 y"
0B
0Y
0p
01"
0H"
0_"
1u"
b0 x"
b0 J"
b0 3"
b0 [
b0 D
b0 ;
b0 *"
0v"
b0 *
b0 3
b110010010100 )
b110010010100 2
b110010010100 )"
b110010010100 F"
b111111001000110 (
b111111001000110 1
b111111001000110 ("
b111111001000110 E"
b1110011010110011 '
b1110011010110011 0
b1110011010110011 '"
b1110011010110011 /"
b10101100101000 &
b10101100101000 /
b10101100101000 &"
b10101100101000 ."
b1101011100 %
b1101011100 .
b1101011100 :
b1101011100 W
b1101011000101010 $
b1101011000101010 -
b1101011000101010 9
b1101011000101010 V
b101011100111110 #
b101011100111110 ,
b101011100111110 8
b101011100111110 @
b1100100111000 "
b1100100111000 +
b1100100111000 7
b1100100111000 ?
#3
b1010011011101100 6
b1010011011101100 <
b1010011011101100 q
b1010011011101100 s"
b1010010000011000 5
b1010010000011000 +"
b1010010000011000 `"
b1010010000011000 t"
b0 s
b0 b"
b1010010000011000 !
b1010010000011000 4
b1010010000011000 w"
b1010010000011000 ,"
b1010010000011000 I"
b1010010000011000 ]"
b1101110110011111 -"
b1101110110011111 2"
b1101110110011111 \"
b1010011011101100 =
b1010011011101100 Z
b1010011011101100 n
b10110110111011 >
b10110110111011 C
b10110110111011 m
0o
b1010011011101100 r
0^"
b1010010000011000 a"
b0 y"
1p
1_"
0u"
b1010010000011000 x"
b1010010000011000 K"
b1101110110011111 4"
b1010011011101100 \
b10110110111011 E
b10 ;
b10 *"
1v"
b110 *
b110 3
b1110001101010101 )
b1110001101010101 2
b1110001101010101 )"
b1110001101010101 F"
b1010010000011000 (
b1010010000011000 1
b1010010000011000 ("
b1010010000011000 E"
b1100111001000111 '
b1100111001000111 0
b1100111001000111 '"
b1100111001000111 /"
b1101110110011111 &
b1101110110011111 /
b1101110110011111 &"
b1101110110011111 ."
b100011100011 %
b100011100011 .
b100011100011 :
b100011100011 W
b1010011011101100 $
b1010011011101100 -
b1010011011101100 9
b1010011011101100 V
b1010101001000000 #
b1010101001000000 ,
b1010101001000000 8
b1010101001000000 @
b10110110111011 "
b10110110111011 +
b10110110111011 7
b10110110111011 ?
#4
b1010011100100010 !
b1010011100100010 4
b1010011100100010 w"
b1010011100100010 x"
b1010011100100010 5
b1010011100100010 +"
b1010011100100010 `"
b1010011100100010 t"
b100010110100 6
b100010110100 <
b100010110100 q
b100010110100 s"
b1010011100100010 a"
b100010110100 r
b1010011100100010 ,"
b1010011100100010 I"
b1010011100100010 ]"
b1010100101110 -"
b1010100101110 2"
b1010100101110 \"
b100010110100 =
b100010110100 Z
b100010110100 n
b11110001101010 >
b11110001101010 C
b11110001101010 m
0A
b11110001101010 D
0X
b100010110100 [
00"
b1010100101110 3"
0G"
b1010011100100010 J"
1B
1Y
11"
1H"
b0 K"
b0 4"
b0 \
b0 E
b11 ;
b11 *"
b111 *
b111 3
b1010011100100010 )
b1010011100100010 2
b1010011100100010 )"
b1010011100100010 F"
b1100111110110000 (
b1100111110110000 1
b1100111110110000 ("
b1100111110110000 E"
b1010100101110 '
b1010100101110 0
b1010100101110 '"
b1010100101110 /"
b1110101010011000 &
b1110101010011000 /
b1110101010011000 &"
b1110101010011000 ."
b100010110100 %
b100010110100 .
b100010110100 :
b100010110100 W
b1110011111011000 $
b1110011111011000 -
b1110011111011000 9
b1110011111011000 V
b11110001101010 #
b11110001101010 ,
b11110001101010 8
b11110001101010 @
b11000011011001 "
b11000011011001 +
b11000011011001 7
b11000011011001 ?
#5
b10001011010 !
b10001011010 4
b10001011010 w"
b10001011010 x"
b11101011111010 6
b11101011111010 <
b11101011111010 q
b11101011111010 s"
b10001011010 5
b10001011010 +"
b10001011010 `"
b10001011010 t"
b11101011111010 E
b10100101100110 \
b11101011111010 s
b10001011010 4"
b1111110100001 K"
b10001011010 b"
b1111110100001 ,"
b1111110100001 I"
b1111110100001 ]"
b10001011010 -"
b10001011010 2"
b10001011010 \"
b10100101100110 =
b10100101100110 Z
b10100101100110 n
b11101011111010 >
b11101011111010 C
b11101011111010 m
1A
1X
1o
b0 r
10"
1G"
1^"
b0 a"
0B
0Y
0p
01"
0H"
0_"
b0 J"
b0 3"
b0 [
b0 D
b0 ;
b0 *"
b100 *
b100 3
b1111001011011001 )
b1111001011011001 2
b1111001011011001 )"
b1111001011011001 F"
b1111110100001 (
b1111110100001 1
b1111110100001 ("
b1111110100001 E"
b1010011011100 '
b1010011011100 0
b1010011011100 '"
b1010011011100 /"
b10001011010 &
b10001011010 /
b10001011010 &"
b10001011010 ."
b1001000100100010 %
b1001000100100010 .
b1001000100100010 :
b1001000100100010 W
b10100101100110 $
b10100101100110 -
b10100101100110 9
b10100101100110 V
b10010011111100 #
b10010011111100 ,
b10010011111100 8
b10010011111100 @
b11101011111010 "
b11101011111010 +
b11101011111010 7
b11101011111010 ?
#6
b1001100000111000 5
b1001100000111000 +"
b1001100000111000 `"
b1001100000111000 t"
b1010101001010111 6
b1010101001010111 <
b1010101001010111 q
b1010101001010111 s"
b1001100000111000 b"
b1010101001010111 s
b1010101001010111 !
b1010101001010111 4
b1010101001010111 w"
b1001111000011010 ,"
b1001111000011010 I"
b1001111000011010 ]"
b1001100000111000 -"
b1001100000111000 2"
b1001100000111000 \"
b1000101100010110 =
b1000101100010110 Z
b1000101100010110 n
b1010101001010111 >
b1010101001010111 C
b1010101001010111 m
0A
b1010101001010111 D
0X
b1000101100010110 [
00"
b1001100000111000 3"
0G"
b1001111000011010 J"
b1010101001010111 y"
1B
1Y
11"
1H"
1u"
b0 x"
b0 K"
b0 4"
b0 \
b0 E
b1 ;
b1 *"
0v"
b1 *
b1 3
b1001111000011010 )
b1001111000011010 2
b1001111000011010 )"
b1001111000011010 F"
b1111101100110110 (
b1111101100110110 1
b1111101100110110 ("
b1111101100110110 E"
b1001100000111000 '
b1001100000111000 0
b1001100000111000 '"
b1001100000111000 /"
b1110110010000101 &
b1110110010000101 /
b1110110010000101 &"
b1110110010000101 ."
b1000101100010110 %
b1000101100010110 .
b1000101100010110 :
b1000101100010110 W
b1111011110010110 $
b1111011110010110 -
b1111011110010110 9
b1111011110010110 V
b1010101001010111 #
b1010101001010111 ,
b1010101001010111 8
b1010101001010111 @
b100011001010100 "
b100011001010100 +
b100011001010100 7
b100011001010100 ?
#7
b1001000100111010 !
b1001000100111010 4
b1001000100111010 w"
b1001000100111010 y"
b1001000100111010 6
b1001000100111010 <
b1001000100111010 q
b1001000100111010 s"
b111111111101011 5
b111111111101011 +"
b111111111101011 `"
b111111111101011 t"
b100110000000111 E
b1001000100111010 \
b0 s
b1110011010000110 4"
b111111111101011 K"
b0 b"
b111111111101011 ,"
b111111111101011 I"
b111111111101011 ]"
b1110011010000110 -"
b1110011010000110 2"
b1110011010000110 \"
b1001000100111010 =
b1001000100111010 Z
b1001000100111010 n
b100110000000111 >
b100110000000111 C
b100110000000111 m
1A
1X
0o
b1001000100111010 r
10"
1G"
0^"
b111111111101011 a"
0B
0Y
1p
01"
0H"
1_"
b0 J"
b0 3"
b0 [
b0 D
b10 ;
b10 *"
b10 *
b10 3
b1110111001110100 )
b1110111001110100 2
b1110111001110100 )"
b1110111001110100 F"
b111111111101011 (
b111111111101011 1
b111111111101011 ("
b111111111101011 E"
b1101110111001 '
b1101110111001 0
b1101110111001 '"
b1101110111001 /"
b1110011010000110 &
b1110011010000110 /
b1110011010000110 &"
b1110011010000110 ."
b1011111110 %
b1011111110 .
b1011111110 :
b1011111110 W
b1001000100111010 $
b1001000100111010 -
b1001000100111010 9
b1001000100111010 V
b1111001111100111 #
b1111001111100111 ,
b1111001111100111 8
b1111001111100111 @
b100110000000111 "
b100110000000111 +
b100110000000111 7
b100110000000111 ?
#8
b100111110011100 !
b100111110011100 4
b100111110011100 w"
b100111110011100 y"
b100111110011100 6
b100111110011100 <
b100111110011100 q
b100111110011100 s"
b1100110001001010 5
b1100110001001010 +"
b1100110001001010 `"
b1100110001001010 t"
b100111110011100 s
b1100110001001010 b"
b1010100001111010 ,"
b1010100001111010 I"
b1010100001111010 ]"
b1100110001001010 -"
b1100110001001010 2"
b1100110001001010 \"
b1100101111101110 =
b1100101111101110 Z
b1100101111101110 n
b100111110011100 >
b100111110011100 C
b100111110011100 m
1o
b0 r
1^"
b0 a"
0p
0_"
b1010100001111010 K"
b1100110001001010 4"
b1100101111101110 \
b100111110011100 E
b0 ;
b0 *"
b0 *
b0 3
b10011100000010 )
b10011100000010 2
b10011100000010 )"
b10011100000010 F"
b1010100001111010 (
b1010100001111010 1
b1010100001111010 ("
b1010100001111010 E"
b10000011000101 '
b10000011000101 0
b10000011000101 '"
b10000011000101 /"
b1100110001001010 &
b1100110001001010 /
b1100110001001010 &"
b1100110001001010 ."
b11010011001010 %
b11010011001010 .
b11010011001010 :
b11010011001010 W
b1100101111101110 $
b1100101111101110 -
b1100101111101110 9
b1100101111101110 V
b11110101000011 #
b11110101000011 ,
b11110101000011 8
b11110101000011 @
b100111110011100 "
b100111110011100 +
b100111110011100 7
b100111110011100 ?
#9
b101000010111111 !
b101000010111111 4
b101000010111111 w"
b101000010111111 y"
b1100000001101001 5
b1100000001101001 +"
b1100000001101001 `"
b1100000001101001 t"
b101000010111111 6
b101000010111111 <
b101000010111111 q
b101000010111111 s"
b1100000001101001 b"
b101000010111111 s
b1010010000111 ,"
b1010010000111 I"
b1010010000111 ]"
b1100000001101001 -"
b1100000001101001 2"
b1100000001101001 \"
b110100010101011 =
b110100010101011 Z
b110100010101011 n
b101000010111111 >
b101000010111111 C
b101000010111111 m
b1010010000111 K"
b1100000001101001 4"
b110100010101011 \
b101000010111111 E
b1111001111100100 )
b1111001111100100 2
b1111001111100100 )"
b1111001111100100 F"
b1010010000111 (
b1010010000111 1
b1010010000111 ("
b1010010000111 E"
b11011111100101 '
b11011111100101 0
b11011111100101 '"
b11011111100101 /"
b1100000001101001 &
b1100000001101001 /
b1100000001101001 &"
b1100000001101001 ."
b101101001000100 %
b101101001000100 .
b101101001000100 :
b101101001000100 W
b110100010101011 $
b110100010101011 -
b110100010101011 9
b110100010101011 V
b1011110000 #
b1011110000 ,
b1011110000 8
b1011110000 @
b101000010111111 "
b101000010111111 +
b101000010111111 7
b101000010111111 ?
#10
b1010100001100100 !
b1010100001100100 4
b1010100001100100 w"
b1010100001100100 y"
b1010100001100100 6
b1010100001100100 <
b1010100001100100 q
b1010100001100100 s"
b100011110111101 5
b100011110111101 +"
b100011110111101 `"
b100011110111101 t"
b0 s
b0 b"
b100011110111101 ,"
b100011110111101 I"
b100011110111101 ]"
b1110100111101100 -"
b1110100111101100 2"
b1110100111101100 \"
b1010100001100100 =
b1010100001100100 Z
b1010100001100100 n
b10111110000100 >
b10111110000100 C
b10111110000100 m
0A
b10111110000100 D
0X
b1010100001100100 [
0o
b1010100001100100 r
00"
b1110100111101100 3"
0G"
b100011110111101 J"
0^"
b100011110111101 a"
1B
1Y
1p
11"
1H"
1_"
b0 K"
b0 4"
b0 \
b0 E
b11 ;
b11 *"
b11 *
b11 3
b100011110111101 )
b100011110111101 2
b100011110111101 )"
b100011110111101 F"
b1111000101011010 (
b1111000101011010 1
b1111000101011010 ("
b1111000101011010 E"
b1110100111101100 '
b1110100111101100 0
b1110100111101100 '"
b1110100111101100 /"
b1110010111001101 &
b1110010111001101 /
b1110010111001101 &"
b1110010111001101 ."
b1010100001100100 %
b1010100001100100 .
b1010100001100100 :
b1010100001100100 W
b111111110110101 $
b111111110110101 -
b111111110110101 9
b111111110110101 V
b10111110000100 #
b10111110000100 ,
b10111110000100 8
b10111110000100 @
b110001101110001 "
b110001101110001 +
b110001101110001 7
b110001101110001 ?
#11
b110111010110100 !
b110111010110100 4
b110111010110100 w"
b110111010110100 y"
b110111010110100 6
b110111010110100 <
b110111010110100 q
b110111010110100 s"
b1011110010110010 5
b1011110010110010 +"
b1011110010110010 `"
b1011110010110010 t"
b110111010110100 E
b101000001110111 \
b110111010110100 s
b1011110010110010 4"
b111100111011 K"
b1011110010110010 b"
b111100111011 ,"
b111100111011 I"
b111100111011 ]"
b1011110010110010 -"
b1011110010110010 2"
b1011110010110010 \"
b101000001110111 =
b101000001110111 Z
b101000001110111 n
b110111010110100 >
b110111010110100 C
b110111010110100 m
1A
1X
1o
b0 r
10"
1G"
1^"
b0 a"
0B
0Y
0p
01"
0H"
0_"
b0 J"
b0 3"
b0 [
b0 D
b0 ;
b0 *"
b0 *
b0 3
b1001100110101010 )
b1001100110101010 2
b1001100110101010 )"
b1001100110101010 F"
b111100111011 (
b111100111011 1
b111100111011 ("
b111100111011 E"
b110010100010011 '
b110010100010011 0
b110010100010011 '"
b110010100010011 /"
b1011110010110010 &
b1011110010110010 /
b1011110010110010 &"
b1011110010110010 ."
b1011010001101100 %
b1011010001101100 .
b1011010001101100 :
b1011010001101100 W
b101000001110111 $
b101000001110111 -
b101000001110111 9
b101000001110111 V
b1111010110101100 #
b1111010110101100 ,
b1111010110101100 8
b1111010110101100 @
b110111010110100 "
b110111010110100 +
b110111010110100 7
b110111010110100 ?
