components/dmux8way16/tb_DMux8Way16.vcd
$date
	Sun Oct 08 19:24:27 2023
$end
$version
	Icarus Verilog
$end
$timescale
	1s
$end
$scope module tb_DMux8Way16 $end
$var wire 16 ! h [15:0] $end
$var wire 16 " g [15:0] $end
$var wire 16 # f [15:0] $end
$var wire 16 $ e [15:0] $end
$var wire 16 % d [15:0] $end
$var wire 16 & c [15:0] $end
$var wire 16 ' b [15:0] $end
$var wire 16 ( a [15:0] $end
$var reg 16 ) in [15:0] $end
$var reg 3 * sel [2:0] $end
$scope module mymodule $end
$var wire 16 + in [15:0] $end
$var wire 3 , sel [2:0] $end
$var wire 16 - h [15:0] $end
$var wire 16 . g [15:0] $end
$var wire 16 / f [15:0] $end
$var wire 16 0 e [15:0] $end
$var wire 16 1 d [15:0] $end
$var wire 16 2 c [15:0] $end
$var wire 16 3 b [15:0] $end
$var wire 16 4 a [15:0] $end
$var wire 16 5 DMux0CD [15:0] $end
$var wire 16 6 DMux0AB [15:0] $end
$scope module DMux16_module0 $end
$var wire 16 7 in [15:0] $end
$var wire 1 8 not_sel $end
$var wire 1 9 sel $end
$var wire 16 : b [15:0] $end
$var wire 16 ; a [15:0] $end
$upscope $end
$scope module DMux4Way16_moduleABCD $end
$var wire 16 < in [15:0] $end
$var wire 2 = sel [1:0] $end
$var wire 16 > d [15:0] $end
$var wire 16 ? c [15:0] $end
$var wire 16 @ b [15:0] $end
$var wire 16 A a [15:0] $end
$var wire 16 B DMux0CD [15:0] $end
$var wire 16 C DMux0AB [15:0] $end
$scope module DMux16_module0 $end
$var wire 16 D in [15:0] $end
$var wire 1 E not_sel $end
$var wire 1 F sel $end
$var wire 16 G b [15:0] $end
$var wire 16 H a [15:0] $end
$upscope $end
$scope module DMux16_moduleOutAB $end
$var wire 16 I in [15:0] $end
$var wire 1 J not_sel $end
$var wire 1 K sel $end
$var wire 16 L b [15:0] $end
$var wire 16 M a [15:0] $end
$upscope $end
$scope module DMux16_moduleOutCD $end
$var wire 16 N in [15:0] $end
$var wire 1 O not_sel $end
$var wire 1 P sel $end
$var wire 16 Q b [15:0] $end
$var wire 16 R a [15:0] $end
$upscope $end
$upscope $end
$scope module DMux4Way16_moduleEFGH $end
$var wire 16 S in [15:0] $end
$var wire 2 T sel [1:0] $end
$var wire 16 U d [15:0] $end
$var wire 16 V c [15:0] $end
$var wire 16 W b [15:0] $end
$var wire 16 X a [15:0] $end
$var wire 16 Y DMux0CD [15:0] $end
$var wire 16 Z DMux0AB [15:0] $end
$scope module DMux16_module0 $end
$var wire 16 [ in [15:0] $end
$var wire 1 \ not_sel $end
$var wire 1 ] sel $end
$var wire 16 ^ b [15:0] $end
$var wire 16 _ a [15:0] $end
$upscope $end
$scope module DMux16_moduleOutAB $end
$var wire 16 ` in [15:0] $end
$var wire 1 a not_sel $end
$var wire 1 b sel $end
$var wire 16 c b [15:0] $end
$var wire 16 d a [15:0] $end
$upscope $end
$scope module DMux16_moduleOutCD $end
$var wire 16 e in [15:0] $end
$var wire 1 f not_sel $end
$var wire 1 g sel $end
$var wire 16 h b [15:0] $end
$var wire 16 i a [15:0] $end
$upscope $end
$upscope $end
$upscope $end
$upscope $end
$enddefinitions $end
$comment Show the parameter values. $end
$dumpall
$end
#0
$dumpvars
b0 i
b0 h
0g
1f
b0 e
b0 d
b0 c
0b
1a
b0 `
b0 _
b0 ^
0]
1\
b0 [
b0 Z
b0 Y
b0 X
b0 W
b0 V
b0 U
b0 T
b0 S
b0 R
b0 Q
0P
1O
b0 N
b0 M
b0 L
0K
1J
b0 I
b0 H
b0 G
0F
1E
b0 D
b0 C
b0 B
b0 A
b0 @
b0 ?
b0 >
b0 =
b0 <
b0 ;
b0 :
09
18
b0 7
b0 6
b0 5
b0 4
b0 3
b0 2
b0 1
b0 0
b0 /
b0 .
b0 -
b0 ,
b0 +
b0 *
b0 )
b0 (
b0 '
b0 &
b0 %
b0 $
b0 #
b0 "
b0 !
$end
#1
b10101000110 (
b10101000110 4
b10101000110 A
b10101000110 M
b10101000110 C
b10101000110 H
b10101000110 I
b10101000110 6
b10101000110 ;
b10101000110 <
b10101000110 D
b10101000110 )
b10101000110 +
b10101000110 7
#2
b0 (
b0 4
b0 A
b0 M
b0 &
b0 2
b0 ?
b0 R
b11001011000 "
b11001011000 .
b11001011000 V
b11001011000 i
b0 C
b0 H
b0 I
0E
b0 B
b0 G
b0 N
0\
b11001011000 Y
b11001011000 ^
b11001011000 e
08
1F
1]
b0 6
b0 ;
b0 <
b0 D
b11001011000 5
b11001011000 :
b11001011000 S
b11001011000 [
19
b10 =
b10 T
b110 *
b110 ,
b11001011000 )
b11001011000 +
b11001011000 7
#3
b111111111100 #
b111111111100 /
b111111111100 W
b111111111100 c
b0 "
b0 .
b0 V
b0 i
b111111111100 Z
b111111111100 _
b111111111100 `
1E
0J
0O
1\
b0 Y
b0 ^
b0 e
0a
0f
b0 !
b0 -
b0 U
b0 h
0F
1K
1P
0]
1b
1g
b111111111100 5
b111111111100 :
b111111111100 S
b111111111100 [
b1 =
b1 T
b101 *
b101 ,
b111111111100 )
b111111111100 +
b111111111100 7
#4
b1000010111110 "
b1000010111110 .
b1000010111110 V
b1000010111110 i
b0 $
b0 0
b0 X
b0 d
b0 Z
b0 _
b0 `
0E
1J
1O
0\
b1000010111110 Y
b1000010111110 ^
b1000010111110 e
1a
b0 #
b0 /
b0 W
b0 c
1f
1F
0K
0P
1]
0b
0g
b1000010111110 5
b1000010111110 :
b1000010111110 S
b1000010111110 [
b10 =
b10 T
b110 *
b110 ,
b1000010111110 )
b1000010111110 +
b1000010111110 7
#5
b1001101100001 (
b1001101100001 4
b1001101100001 A
b1001101100001 M
b1001101100001 C
b1001101100001 H
b1001101100001 I
b0 "
b0 .
b0 V
b0 i
b1001101100001 6
b1001101100001 ;
b1001101100001 <
b1001101100001 D
1E
1\
b0 Y
b0 ^
b0 e
18
0F
0]
b0 5
b0 :
b0 S
b0 [
09
b0 =
b0 T
b0 *
b0 ,
b1001101100001 )
b1001101100001 +
b1001101100001 7
#6
b1011101101010 (
b1011101101010 4
b1011101101010 A
b1011101101010 M
b1011101101010 C
b1011101101010 H
b1011101101010 I
b1011101101010 6
b1011101101010 ;
b1011101101010 <
b1011101101010 D
b1011101101010 )
b1011101101010 +
b1011101101010 7
#7
b1100011011100 #
b1100011011100 /
b1100011011100 W
b1100011011100 c
b0 (
b0 4
b0 A
b0 M
b0 C
b0 H
b0 I
b1100011011100 Z
b1100011011100 _
b1100011011100 `
0J
b0 '
b0 3
b0 @
b0 L
0O
0a
0f
08
1K
1P
1b
1g
b0 6
b0 ;
b0 <
b0 D
b1100011011100 5
b1100011011100 :
b1100011011100 S
b1100011011100 [
19
b1 =
b1 T
b101 *
b101 ,
b1100011011100 )
b1100011011100 +
b1100011011100 7
#8
b10000111011111 $
b10000111011111 0
b10000111011111 X
b10000111011111 d
b10000111011111 Z
b10000111011111 _
b10000111011111 `
1J
1O
1a
b0 #
b0 /
b0 W
b0 c
1f
0K
0P
0b
0g
b10000111011111 5
b10000111011111 :
b10000111011111 S
b10000111011111 [
b0 =
b0 T
b100 *
b100 ,
b10000111011111 )
b10000111011111 +
b10000111011111 7
#9
b11000101110111 %
b11000101110111 1
b11000101110111 >
b11000101110111 Q
b11000101110111 B
b11000101110111 G
b11000101110111 N
b0 !
b0 -
b0 U
b0 h
b0 $
b0 0
b0 X
b0 d
b0 Z
b0 _
b0 `
b11000101110111 6
b11000101110111 ;
b11000101110111 <
b11000101110111 D
0E
0J
0O
0\
b0 Y
b0 ^
b0 e
0a
b0 #
b0 /
b0 W
b0 c
0f
18
1F
1K
1P
1]
1b
1g
b0 5
b0 :
b0 S
b0 [
09
b11 =
b11 T
b11 *
b11 ,
b11000101110111 )
b11000101110111 +
b11000101110111 7
#10
b100001010001101 '
b100001010001101 3
b100001010001101 @
b100001010001101 L
b0 %
b0 1
b0 >
b0 Q
b100001010001101 C
b100001010001101 H
b100001010001101 I
1E
b0 B
b0 G
b0 N
1\
0F
0]
b100001010001101 6
b100001010001101 ;
b100001010001101 <
b100001010001101 D
b1 =
b1 T
b1 *
b1 ,
b100001010001101 )
b100001010001101 +
b100001010001101 7
#11
b0 '
b0 3
b0 @
b0 L
b0 %
b0 1
b0 >
b0 Q
b100110011110010 !
b100110011110010 -
b100110011110010 U
b100110011110010 h
b0 C
b0 H
b0 I
0E
b0 B
b0 G
b0 N
0\
b100110011110010 Y
b100110011110010 ^
b100110011110010 e
08
1F
1]
b0 6
b0 ;
b0 <
b0 D
b100110011110010 5
b100110011110010 :
b100110011110010 S
b100110011110010 [
19
b11 =
b11 T
b111 *
b111 ,
b100110011110010 )
b100110011110010 +
b100110011110010 7
#12
b101011000001010 #
b101011000001010 /
b101011000001010 W
b101011000001010 c
b0 !
b0 -
b0 U
b0 h
b101011000001010 Z
b101011000001010 _
b101011000001010 `
1E
1\
b0 Y
b0 ^
b0 e
0F
0]
b101011000001010 5
b101011000001010 :
b101011000001010 S
b101011000001010 [
b1 =
b1 T
b101 *
b101 ,
b101011000001010 )
b101011000001010 +
b101011000001010 7
#13
b101100001111001 '
b101100001111001 3
b101100001111001 @
b101100001111001 L
b0 #
b0 /
b0 W
b0 c
b101100001111001 C
b101100001111001 H
b101100001111001 I
b0 Z
b0 _
b0 `
b101100001111001 6
b101100001111001 ;
b101100001111001 <
b101100001111001 D
18
b0 5
b0 :
b0 S
b0 [
09
b1 *
b1 ,
b101100001111001 )
b101100001111001 +
b101100001111001 7
#14
b0 '
b0 3
b0 @
b0 L
b0 %
b0 1
b0 >
b0 Q
b110000000111110 !
b110000000111110 -
b110000000111110 U
b110000000111110 h
b0 C
b0 H
b0 I
0E
b0 B
b0 G
b0 N
0\
b110000000111110 Y
b110000000111110 ^
b110000000111110 e
08
1F
1]
b0 6
b0 ;
b0 <
b0 D
b110000000111110 5
b110000000111110 :
b110000000111110 S
b110000000111110 [
19
b11 =
b11 T
b111 *
b111 ,
b110000000111110 )
b110000000111110 +
b110000000111110 7
#15
b111100110000100 "
b111100110000100 .
b111100110000100 V
b111100110000100 i
b111100110000100 Y
b111100110000100 ^
b111100110000100 e
1J
1O
1a
1f
b0 !
b0 -
b0 U
b0 h
0K
0P
0b
0g
b111100110000100 5
b111100110000100 :
b111100110000100 S
b111100110000100 [
b10 =
b10 T
b110 *
b110 ,
b111100110000100 )
b111100110000100 +
b111100110000100 7
#16
b111111110110001 &
b111111110110001 2
b111111110110001 ?
b111111110110001 R
b0 "
b0 .
b0 V
b0 i
b111111110110001 B
b111111110110001 G
b111111110110001 N
b0 Y
b0 ^
b0 e
b111111110110001 6
b111111110110001 ;
b111111110110001 <
b111111110110001 D
18
b0 5
b0 :
b0 S
b0 [
09
b10 *
b10 ,
b111111110110001 )
b111111110110001 +
b111111110110001 7
#17
b1000010111000010 &
b1000010111000010 2
b1000010111000010 ?
b1000010111000010 R
b1000010111000010 B
b1000010111000010 G
b1000010111000010 N
b1000010111000010 6
b1000010111000010 ;
b1000010111000010 <
b1000010111000010 D
b1000010111000010 )
b1000010111000010 +
b1000010111000010 7
#18
b1000011010111100 &
b1000011010111100 2
b1000011010111100 ?
b1000011010111100 R
b1000011010111100 B
b1000011010111100 G
b1000011010111100 N
b1000011010111100 6
b1000011010111100 ;
b1000011010111100 <
b1000011010111100 D
b1000011010111100 )
b1000011010111100 +
b1000011010111100 7
#19
b0 '
b0 3
b0 @
b0 L
b1000111101101000 #
b1000111101101000 /
b1000111101101000 W
b1000111101101000 c
b0 &
b0 2
b0 ?
b0 R
b0 C
b0 H
b0 I
b1000111101101000 Z
b1000111101101000 _
b1000111101101000 `
1E
b0 B
b0 G
b0 N
0J
0O
b0 %
b0 1
b0 >
b0 Q
1\
0a
0f
08
0F
1K
1P
0]
1b
1g
b0 6
b0 ;
b0 <
b0 D
b1000111101101000 5
b1000111101101000 :
b1000111101101000 S
b1000111101101000 [
19
b1 =
b1 T
b101 *
b101 ,
b1000111101101000 )
b1000111101101000 +
b1000111101101000 7
#20
b1001100001100001 (
b1001100001100001 4
b1001100001100001 A
b1001100001100001 M
b1001100001100001 C
b1001100001100001 H
b1001100001100001 I
b0 $
b0 0
b0 X
b0 d
b0 Z
b0 _
b0 `
b1001100001100001 6
b1001100001100001 ;
b1001100001100001 <
b1001100001100001 D
1J
1O
1a
b0 #
b0 /
b0 W
b0 c
1f
18
0K
0P
0b
0g
b0 5
b0 :
b0 S
b0 [
09
b0 =
b0 T
b0 *
b0 ,
b1001100001100001 )
b1001100001100001 +
b1001100001100001 7
#21
b1001110110111010 %
b1001110110111010 1
b1001110110111010 >
b1001110110111010 Q
b0 (
b0 4
b0 A
b0 M
b0 C
b0 H
b0 I
0E
b1001110110111010 B
b1001110110111010 G
b1001110110111010 N
0J
b0 '
b0 3
b0 @
b0 L
0O
0\
0a
0f
1F
1K
1P
1]
1b
1g
b1001110110111010 6
b1001110110111010 ;
b1001110110111010 <
b1001110110111010 D
b11 =
b11 T
b11 *
b11 ,
b1001110110111010 )
b1001110110111010 +
b1001110110111010 7
#22
b1011101110011100 %
b1011101110011100 1
b1011101110011100 >
b1011101110011100 Q
b1011101110011100 B
b1011101110011100 G
b1011101110011100 N
b1011101110011100 6
b1011101110011100 ;
b1011101110011100 <
b1011101110011100 D
b1011101110011100 )
b1011101110011100 +
b1011101110011100 7
#23
b0 '
b0 3
b0 @
b0 L
b1100010011110100 #
b1100010011110100 /
b1100010011110100 W
b1100010011110100 c
b0 %
b0 1
b0 >
b0 Q
b0 C
b0 H
b0 I
b1100010011110100 Z
b1100010011110100 _
b1100010011110100 `
1E
b0 B
b0 G
b0 N
1\
08
0F
0]
b0 6
b0 ;
b0 <
b0 D
b1100010011110100 5
b1100010011110100 :
b1100010011110100 S
b1100010011110100 [
19
b1 =
b1 T
b101 *
b101 ,
b1100010011110100 )
b1100010011110100 +
b1100010011110100 7
#24
b1100101001010000 &
b1100101001010000 2
b1100101001010000 ?
b1100101001010000 R
b1100101001010000 B
b1100101001010000 G
b1100101001010000 N
b0 "
b0 .
b0 V
b0 i
b0 $
b0 0
b0 X
b0 d
b0 Z
b0 _
b0 `
b1100101001010000 6
b1100101001010000 ;
b1100101001010000 <
b1100101001010000 D
0E
1J
1O
0\
b0 Y
b0 ^
b0 e
1a
b0 #
b0 /
b0 W
b0 c
1f
18
1F
0K
0P
1]
0b
0g
b0 5
b0 :
b0 S
b0 [
09
b10 =
b10 T
b10 *
b10 ,
b1100101001010000 )
b1100101001010000 +
b1100101001010000 7
#25
b0 &
b0 2
b0 ?
b0 R
b1101100101101000 "
b1101100101101000 .
b1101100101101000 V
b1101100101101000 i
b0 B
b0 G
b0 N
b1101100101101000 Y
b1101100101101000 ^
b1101100101101000 e
08
b0 6
b0 ;
b0 <
b0 D
b1101100101101000 5
b1101100101101000 :
b1101100101101000 S
b1101100101101000 [
19
b110 *
b110 ,
b1101100101101000 )
b1101100101101000 +
b1101100101101000 7
#26
b1110100100011001 $
b1110100100011001 0
b1110100100011001 X
b1110100100011001 d
b0 "
b0 .
b0 V
b0 i
b1110100100011001 Z
b1110100100011001 _
b1110100100011001 `
1E
1\
b0 Y
b0 ^
b0 e
0F
0]
b1110100100011001 5
b1110100100011001 :
b1110100100011001 S
b1110100100011001 [
b0 =
b0 T
b100 *
b100 ,
b1110100100011001 )
b1110100100011001 +
b1110100100011001 7
#27
b0 $
b0 0
b0 X
b0 d
b1111010010111010 "
b1111010010111010 .
b1111010010111010 V
b1111010010111010 i
b0 Z
b0 _
b0 `
0E
0\
b1111010010111010 Y
b1111010010111010 ^
b1111010010111010 e
1F
1]
b1111010010111010 5
b1111010010111010 :
b1111010010111010 S
b1111010010111010 [
b10 =
b10 T
b110 *
b110 ,
b1111010010111010 )
b1111010010111010 +
b1111010010111010 7
#28
b1111100100001100 #
b1111100100001100 /
b1111100100001100 W
b1111100100001100 c
b0 "
b0 .
b0 V
b0 i
b1111100100001100 Z
b1111100100001100 _
b1111100100001100 `
1E
0J
0O
1\
b0 Y
b0 ^
b0 e
0a
0f
b0 !
b0 -
b0 U
b0 h
0F
1K
1P
0]
1b
1g
b1111100100001100 5
b1111100100001100 :
b1111100100001100 S
b1111100100001100 [
b1 =
b1 T
b101 *
b101 ,
b1111100100001100 )
b1111100100001100 +
b1111100100001100 7
#29
b0 #
b0 /
b0 W
b0 c
b1111111111111111 !
b1111111111111111 -
b1111111111111111 U
b1111111111111111 h
b0 Z
b0 _
b0 `
0E
0\
b1111111111111111 Y
b1111111111111111 ^
b1111111111111111 e
1F
1]
b1111111111111111 5
b1111111111111111 :
b1111111111111111 S
b1111111111111111 [
b11 =
b11 T
b111 *
b111 ,
b1111111111111111 )
b1111111111111111 +
b1111111111111111 7
