components/dmux16/tb_DMux16.vcd
$date
	Sun Oct 08 19:35:00 2023
$end
$version
	Icarus Verilog
$end
$timescale
	1s
$end
$scope module tb_DMux16 $end
$var wire 16 ! b [15:0] $end
$var wire 16 " a [15:0] $end
$var reg 16 # in [15:0] $end
$var reg 1 $ sel $end
$scope module mymodule $end
$var wire 16 % in [15:0] $end
$var wire 1 & not_sel $end
$var wire 1 $ sel $end
$var wire 16 ' b [15:0] $end
$var wire 16 ( a [15:0] $end
$upscope $end
$upscope $end
$enddefinitions $end
$comment Show the parameter values. $end
$dumpall
$end
#0
$dumpvars
b100100011110 (
b0 '
1&
b100100011110 %
0$
b100100011110 #
b100100011110 "
b0 !
$end
#1
b110101100101 "
b110101100101 (
b110101100101 #
b110101100101 %
#2
b1010110000000 "
b1010110000000 (
b1010110000000 #
b1010110000000 %
#3
b0 "
b0 (
0&
b1010110111110 !
b1010110111110 '
1$
b1010110111110 #
b1010110111110 %
#4
b1100010000011 "
b1100010000011 (
1&
b0 !
b0 '
0$
b1100010000011 #
b1100010000011 %
#5
b0 "
b0 (
0&
b10000011110001 !
b10000011110001 '
1$
b10000011110001 #
b10000011110001 %
#6
b10000100111011 "
b10000100111011 (
1&
b0 !
b0 '
0$
b10000100111011 #
b10000100111011 %
#7
b10010001110000 "
b10010001110000 (
b10010001110000 #
b10010001110000 %
#8
b10111110101011 "
b10111110101011 (
b10111110101011 #
b10111110101011 %
#9
b11111011000000 "
b11111011000000 (
b11111011000000 #
b11111011000000 %
#10
b100000000011100 "
b100000000011100 (
b100000000011100 #
b100000000011100 %
#11
b100100111011000 "
b100100111011000 (
b100100111011000 #
b100100111011000 %
#12
b101001110011111 "
b101001110011111 (
b101001110011111 #
b101001110011111 %
#13
b101011010110110 "
b101011010110110 (
b101011010110110 #
b101011010110110 %
#14
b101100110011000 "
b101100110011000 (
b101100110011000 #
b101100110011000 %
#15
b110101001010100 "
b110101001010100 (
b110101001010100 #
b110101001010100 %
#16
b0 "
b0 (
0&
b110110100001000 !
b110110100001000 '
1$
b110110100001000 #
b110110100001000 %
#17
b1001001000111100 "
b1001001000111100 (
1&
b0 !
b0 '
0$
b1001001000111100 #
b1001001000111100 %
#18
b1001011101000101 "
b1001011101000101 (
b1001011101000101 #
b1001011101000101 %
#19
b1001111111001100 "
b1001111111001100 (
b1001111111001100 #
b1001111111001100 %
#20
b1010010011101000 "
b1010010011101000 (
b1010010011101000 #
b1010010011101000 %
#21
b0 "
b0 (
0&
b1010011010100111 !
b1010011010100111 '
1$
b1010011010100111 #
b1010011010100111 %
#22
b1100110001011111 !
b1100110001011111 '
b1100110001011111 #
b1100110001011111 %
#23
b1101011101100011 "
b1101011101100011 (
1&
b0 !
b0 '
0$
b1101011101100011 #
b1101011101100011 %
#24
b0 "
b0 (
0&
b1101100010010000 !
b1101100010010000 '
1$
b1101100010010000 #
b1101100010010000 %
#25
b1101111010001011 "
b1101111010001011 (
1&
b0 !
b0 '
0$
b1101111010001011 #
b1101111010001011 %
#26
b1110011001000110 "
b1110011001000110 (
b1110011001000110 #
b1110011001000110 %
#27
b0 "
b0 (
0&
b1110100110111011 !
b1110100110111011 '
1$
b1110100110111011 #
b1110100110111011 %
#28
b1111000000010000 "
b1111000000010000 (
1&
b0 !
b0 '
0$
b1111000000010000 #
b1111000000010000 %
#29
b0 "
b0 (
0&
b1111000100100000 !
b1111000100100000 '
1$
b1111000100100000 #
b1111000100100000 %
